Lab5/Part3/simulation/qsim/part3.msim.vcd
$comment
	File created using the following command:
		vcd file part3.msim.vcd -direction
$end
$date
	Tue Oct 18 09:31:53 2016
$end
$version
	ModelSim Version 10.4d
$end
$timescale
	1ps
$end

$scope module part3_vlg_vec_tst $end
$var reg 1 ! KEY [0:0] $end
$var reg 2 " SW [0:1] $end
$var wire 1 # HEX0 [0] $end
$var wire 1 $ HEX0 [1] $end
$var wire 1 % HEX0 [2] $end
$var wire 1 & HEX0 [3] $end
$var wire 1 ' HEX0 [4] $end
$var wire 1 ( HEX0 [5] $end
$var wire 1 ) HEX0 [6] $end
$var wire 1 * HEX1 [0] $end
$var wire 1 + HEX1 [1] $end
$var wire 1 , HEX1 [2] $end
$var wire 1 - HEX1 [3] $end
$var wire 1 . HEX1 [4] $end
$var wire 1 / HEX1 [5] $end
$var wire 1 0 HEX1 [6] $end

$scope module i1 $end
$var wire 1 1 gnd $end
$var wire 1 2 vcc $end
$var wire 1 3 unknown $end
$var tri1 1 4 devclrn $end
$var tri1 1 5 devpor $end
$var tri1 1 6 devoe $end
$var wire 1 7 ~QUARTUS_CREATED_GND~I_combout $end
$var wire 1 8 KEY[0]~input_o $end
$var wire 1 9 KEY[0]~inputCLKENA0_outclk $end
$var wire 1 : SW[1]~input_o $end
$var wire 1 ; SW[0]~input_o $end
$var wire 1 < comb_3|q~0_combout $end
$var wire 1 = comb_3|q~q $end
$var wire 1 > comb_4|q~0_combout $end
$var wire 1 ? comb_4|q~q $end
$var wire 1 @ comb_6|q~0_combout $end
$var wire 1 A comb_6|q~q $end
$var wire 1 B comb_9|q~0_combout $end
$var wire 1 C comb_9|q~q $end
$var wire 1 D comb_39|hex[5]~0_combout $end
$var wire 1 E comb_39|hex[4]~1_combout $end
$var wire 1 F comb_39|hex[2]~2_combout $end
$var wire 1 G comb_39|hex[1]~3_combout $end
$var wire 1 H comb_39|hex[0]~4_combout $end
$var wire 1 I comb~0_combout $end
$var wire 1 J comb_13|q~1_combout $end
$var wire 1 K comb_13|q~q $end
$var wire 1 L comb_18|q~0_combout $end
$var wire 1 M comb_18|q~q $end
$var wire 1 N comb_13|q~0_combout $end
$var wire 1 O comb_24|q~0_combout $end
$var wire 1 P comb_24|q~q $end
$var wire 1 Q comb_31|q~1_combout $end
$var wire 1 R comb_31|q~0_combout $end
$var wire 1 S comb_31|q~q $end
$var wire 1 T comb_40|hex[5]~0_combout $end
$var wire 1 U comb_40|hex[4]~1_combout $end
$var wire 1 V comb_40|hex[2]~2_combout $end
$var wire 1 W comb_40|hex[1]~3_combout $end
$var wire 1 X comb_40|hex[0]~4_combout $end
$var wire 1 Y comb_39|hex [0] $end
$var wire 1 Z comb_39|hex [1] $end
$var wire 1 [ comb_39|hex [2] $end
$var wire 1 \ comb_39|hex [3] $end
$var wire 1 ] comb_39|hex [4] $end
$var wire 1 ^ comb_39|hex [5] $end
$var wire 1 _ comb_39|hex [6] $end
$var wire 1 ` comb_40|hex [0] $end
$var wire 1 a comb_40|hex [1] $end
$var wire 1 b comb_40|hex [2] $end
$var wire 1 c comb_40|hex [3] $end
$var wire 1 d comb_40|hex [4] $end
$var wire 1 e comb_40|hex [5] $end
$var wire 1 f comb_40|hex [6] $end
$upscope $end
$upscope $end
$enddefinitions $end
#0
$dumpvars
b0 !
b0 "
1)
0(
0'
0&
0%
0$
0#
10
0/
0.
0-
0,
0+
0*
01
12
x3
14
15
16
07
08
09
0:
0;
0<
0=
0>
0?
0@
0A
0B
0C
0D
0E
0F
0G
0H
0I
0J
0K
0L
0M
0N
0O
0P
0Q
0R
0S
0T
0U
0V
0W
0X
1_
z^
z]
0\
z[
zZ
zY
1f
ze
zd
0c
zb
za
z`
$end
#62500
b1 "
1:
#125000
b11 "
b10 "
0:
1;
#187500
b11 "
1:
1<
#250000
b1 !
b1 "
b0 "
18
0:
0;
19
0<
1=
1H
1\
1E
1D
1(
1'
1&
1#
#312500
b1 "
1:
#375000
b11 "
b10 "
0:
1;
1<
#437500
b11 "
1:
1>
0<
#500000
b0 !
b1 "
b0 "
08
0:
0;
09
0>
#562500
b1 "
1:
#625000
b11 "
b10 "
0:
1;
1<
#687500
b11 "
1:
1>
0<
#750000
b1 !
b1 "
b0 "
18
0:
0;
19
0>
1?
0=
0H
1F
0\
0E
0_
0)
0'
0&
1%
0#
#812500
b1 "
1:
#875000
b11 "
b10 "
0:
1;
1>
#937500
b11 "
1:
1<
