Lab2-3/part5ECF/simulation/qsim/part5.msim.vcd
$comment
	File created using the following command:
		vcd file part5.msim.vcd -direction
$end
$date
	Tue Oct 04 11:08:52 2016
$end
$version
	ModelSim Version 10.4d
$end
$timescale
	1ps
$end

$scope module part5_vlg_vec_tst $end
$var reg 10 ! SW [9:0] $end
$var wire 1 " HEX0 [0] $end
$var wire 1 # HEX0 [1] $end
$var wire 1 $ HEX0 [2] $end
$var wire 1 % HEX0 [3] $end
$var wire 1 & HEX0 [4] $end
$var wire 1 ' HEX0 [5] $end
$var wire 1 ( HEX0 [6] $end
$var wire 1 ) HEX1 [0] $end
$var wire 1 * HEX1 [1] $end
$var wire 1 + HEX1 [2] $end
$var wire 1 , HEX1 [3] $end
$var wire 1 - HEX1 [4] $end
$var wire 1 . HEX1 [5] $end
$var wire 1 / HEX1 [6] $end
$var wire 1 0 HEX2 [0] $end
$var wire 1 1 HEX2 [1] $end
$var wire 1 2 HEX2 [2] $end
$var wire 1 3 HEX2 [3] $end
$var wire 1 4 HEX2 [4] $end
$var wire 1 5 HEX2 [5] $end
$var wire 1 6 HEX2 [6] $end
$var wire 1 7 LEDR [9] $end
$var wire 1 8 LEDR [8] $end
$var wire 1 9 LEDR [7] $end
$var wire 1 : LEDR [6] $end
$var wire 1 ; LEDR [5] $end
$var wire 1 < LEDR [4] $end
$var wire 1 = LEDR [3] $end
$var wire 1 > LEDR [2] $end
$var wire 1 ? LEDR [1] $end
$var wire 1 @ LEDR [0] $end

$scope module i1 $end
$var wire 1 A gnd $end
$var wire 1 B vcc $end
$var wire 1 C unknown $end
$var tri1 1 D devclrn $end
$var tri1 1 E devpor $end
$var tri1 1 F devoe $end
$var wire 1 G ~QUARTUS_CREATED_GND~I_combout $end
$var wire 1 H SW[0]~input_o $end
$var wire 1 I SW[1]~input_o $end
$var wire 1 J SW[2]~input_o $end
$var wire 1 K SW[3]~input_o $end
$var wire 1 L SW[4]~input_o $end
$var wire 1 M SW[5]~input_o $end
$var wire 1 N SW[6]~input_o $end
$var wire 1 O SW[7]~input_o $end
$var wire 1 P SW[8]~input_o $end
$var wire 1 Q SW[9]~input_o $end
$var wire 1 R comb_5|M[0]~0_combout $end
$var wire 1 S comb_5|M[1]~1_combout $end
$var wire 1 T comb_6|Display~0_combout $end
$var wire 1 U comb_4|M[0]~0_combout $end
$var wire 1 V comb_4|M[1]~1_combout $end
$var wire 1 W comb_7|Display~0_combout $end
$var wire 1 X comb_3|M[0]~0_combout $end
$var wire 1 Y comb_3|M[1]~1_combout $end
$var wire 1 Z comb_8|Display~0_combout $end
$upscope $end
$upscope $end
$enddefinitions $end
#0
$dumpvars
b0xx000000 !
0(
1'
0&
0%
0$
0#
1"
0/
1.
0-
0,
0+
0*
1)
06
15
04
03
02
01
10
0@
0?
0>
0=
0<
0;
x:
x9
08
07
0A
1B
xC
1D
1E
1F
0G
0H
0I
0J
0K
0L
0M
xN
xO
0P
0Q
0R
0S
0T
0U
0V
0W
0X
0Y
0Z
$end
#3125
b0xx100000 !
1M
1;
1X
16
14
13
#6250
b0xx110000 !
b0xx010000 !
1L
0M
0;
1<
0X
1Y
12
11
06
04
03
1Z
00
05
#9375
b0xx110000 !
1M
1;
1X
16
14
13
0Z
10
15
#12500
b0xx111000 !
b0xx101000 !
b0xx001000 !
1K
0L
0M
0;
0<
1=
0X
1U
0Y
02
01
1/
1-
1,
06
04
03
#15625
b0xx101000 !
1M
1;
1X
16
14
13
#18750
b0xx111000 !
b0xx011000 !
1L
0M
0;
1<
0X
1Y
12
11
06
04
03
1Z
00
05
#21875
b0xx111000 !
1M
1;
1X
16
14
13
0Z
10
15
#25000
b0xx111100 !
b0xx110100 !
b0xx100100 !
b0xx000100 !
1J
0K
0L
0M
0;
0<
0=
1>
0X
0U
0Y
1V
1+
1*
02
01
0/
0-
0,
06
04
03
1W
0)
0.
#28125
b0xx100100 !
1M
1;
1X
16
14
13
#31250
b0xx110100 !
b0xx010100 !
1L
0M
0;
1<
0X
1Y
12
11
06
04
03
1Z
00
05
#34375
b0xx110100 !
1M
1;
1X
16
14
13
0Z
10
15
#37500
b0xx111100 !
b0xx101100 !
b0xx001100 !
1K
0L
0M
0;
0<
1=
0X
1U
0Y
02
01
1/
1-
1,
06
04
03
0W
1)
1.
#40625
b0xx101100 !
1M
1;
1X
16
14
13
#43750
b0xx111100 !
b0xx011100 !
1L
0M
0;
1<
0X
1Y
12
11
06
04
03
1Z
00
05
#46875
b0xx111100 !
1M
1;
1X
16
14
13
0Z
10
15
#50000
b0xx111110 !
b0xx111010 !
b0xx110010 !
b0xx100010 !
b0xx000010 !
1I
0J
0K
0L
0M
0;
0<
0=
0>
1?
0X
0U
1R
0Y
0V
0+
0*
02
01
1(
1&
1%
0/
0-
0,
06
04
03
#53125
b0xx100010 !
1M
1;
1X
16
14
13
#56250
b0xx110010 !
b0xx010010 !
1L
0M
0;
1<
0X
1Y
12
11
06
04
03
1Z
00
05
#59375
b0xx110010 !
1M
1;
1X
16
14
13
0Z
10
15
#62500
b0xx111010 !
b0xx101010 !
b0xx001010 !
1K
0L
0M
0;
0<
1=
0X
1U
0Y
02
01
1/
1-
1,
06
04
03
#65625
b0xx101010 !
1M
1;
1X
16
14
13
#68750
b0xx111010 !
b0xx011010 !
1L
0M
0;
1<
0X
1Y
12
11
06
04
03
1Z
00
05
#71875
b0xx111010 !
1M
1;
1X
16
14
13
0Z
10
15
#75000
b0xx111110 !
b0xx110110 !
b0xx100110 !
b0xx000110 !
1J
0K
0L
0M
0;
0<
0=
1>
0X
0U
0Y
1V
1+
1*
02
01
0/
0-
0,
06
04
03
1W
0)
0.
#78125
b0xx100110 !
1M
1;
1X
16
14
13
#81250
b0xx110110 !
b0xx010110 !
1L
0M
0;
1<
0X
1Y
12
11
06
04
03
1Z
00
05
#84375
b0xx110110 !
1M
1;
1X
16
14
13
0Z
10
15
#87500
b0xx111110 !
b0xx101110 !
b0xx001110 !
1K
0L
0M
0;
0<
1=
0X
1U
0Y
02
01
1/
1-
1,
06
04
03
0W
1)
1.
#90625
b0xx101110 !
1M
1;
1X
16
14
13
#93750
b0xx111110 !
b0xx011110 !
1L
0M
0;
1<
0X
1Y
12
11
06
04
03
1Z
00
05
#96875
b0xx111110 !
1M
1;
1X
16
14
13
0Z
10
15
#100000
b0xx111111 !
b0xx111101 !
b0xx111001 !
b0xx110001 !
b0xx100001 !
b0xx000001 !
1H
0I
0J
0K
0L
0M
0;
0<
0=
0>
0?
1@
0X
0U
0R
0Y
0V
1S
1$
1#
0+
0*
02
01
0(
0&
0%
0/
0-
0,
06
04
03
1T
0"
0'
#103125
b0xx100001 !
1M
1;
1X
16
14
13
#106250
b0xx110001 !
b0xx010001 !
1L
0M
0;
1<
0X
1Y
12
11
06
04
03
1Z
00
05
#109375
b0xx110001 !
1M
1;
1X
16
14
13
0Z
10
15
#112500
b0xx111001 !
b0xx101001 !
b0xx001001 !
1K
0L
0M
0;
0<
1=
0X
1U
0Y
02
01
1/
1-
1,
06
04
03
#115625
b0xx101001 !
1M
1;
1X
16
14
13
#118750
b0xx111001 !
b0xx011001 !
1L
0M
0;
1<
0X
1Y
12
11
06
04
03
1Z
00
05
#121875
b0xx111001 !
1M
1;
1X
16
14
13
0Z
10
15
#125000
b0xx111101 !
b0xx110101 !
b0xx100101 !
b0xx000101 !
1J
0K
0L
0M
0;
0<
0=
1>
0X
0U
0Y
1V
1+
1*
02
01
0/
0-
0,
06
04
03
1W
0)
0.
#128125
b0xx100101 !
1M
1;
1X
16
14
13
#131250
b0xx110101 !
b0xx010101 !
1L
0M
0;
1<
0X
1Y
12
11
06
04
03
1Z
00
05
#134375
b0xx110101 !
1M
1;
1X
16
14
13
0Z
10
15
#137500
b0xx111101 !
b0xx101101 !
b0xx001101 !
1K
0L
0M
0;
0<
1=
0X
1U
0Y
02
01
1/
1-
1,
06
04
03
0W
1)
1.
#140625
b0xx101101 !
1M
1;
1X
16
14
13
#143750
b0xx111101 !
b0xx011101 !
1L
0M
0;
1<
0X
1Y
12
11
06
04
03
1Z
00
05
#146875
b0xx111101 !
1M
1;
1X
16
14
13
0Z
10
15
#150000
b0xx111111 !
b0xx111011 !
b0xx110011 !
b0xx100011 !
b0xx000011 !
1I
0J
0K
0L
0M
0;
0<
0=
0>
1?
0X
0U
1R
0Y
0V
0+
0*
02
01
1(
1&
1%
0/
0-
0,
06
04
03
0T
1"
1'
#153125
b0xx100011 !
1M
1;
1X
16
14
13
#156250
b0xx110011 !
b0xx010011 !
1L
0M
0;
1<
0X
1Y
12
11
06
04
03
1Z
00
05
#159375
b0xx110011 !
1M
1;
1X
16
14
13
0Z
10
15
#162500
b0xx111011 !
b0xx101011 !
b0xx001011 !
1K
0L
0M
0;
0<
1=
0X
1U
0Y
02
01
1/
1-
1,
06
04
03
#165625
b0xx101011 !
1M
1;
1X
16
14
13
#168750
b0xx111011 !
b0xx011011 !
1L
0M
0;
1<
0X
1Y
12
11
06
04
03
1Z
00
05
#171875
b0xx111011 !
1M
1;
1X
16
14
13
0Z
10
15
#175000
b0xx111111 !
b0xx110111 !
b0xx100111 !
b0xx000111 !
1J
0K
0L
0M
0;
0<
0=
1>
0X
0U
0Y
1V
1+
1*
02
01
0/
0-
0,
06
04
03
1W
0)
0.
#178125
b0xx100111 !
1M
1;
1X
16
14
13
#181250
b0xx110111 !
b0xx010111 !
1L
0M
0;
1<
0X
1Y
12
11
06
04
03
1Z
00
05
#184375
b0xx110111 !
1M
1;
1X
16
14
13
0Z
10
15
#187500
b0xx111111 !
b0xx101111 !
b0xx001111 !
1K
0L
0M
0;
0<
1=
0X
1U
0Y
02
01
1/
1-
1,
06
04
03
0W
1)
1.
#190625
b0xx101111 !
1M
1;
1X
16
14
13
#193750
b0xx111111 !
b0xx011111 !
1L
0M
0;
1<
0X
1Y
12
11
06
04
03
1Z
00
05
#196875
b0xx111111 !
1M
1;
1X
16
14
13
0Z
10
15
#200000
b1xx111111 !
b1xx111110 !
b1xx111100 !
b1xx111000 !
b1xx110000 !
b1xx100000 !
b1xx000000 !
0H
0I
0J
0K
0L
0M
1P
18
0;
0<
0=
0>
0?
0@
0Y
0X
0V
0U
0S
0R
0(
0&
0%
0$
0#
0/
0-
0,
0+
0*
06
04
03
02
01
#203125
b1xx100000 !
1M
1;
1R
1(
1&
1%
#206250
b1xx110000 !
b1xx010000 !
1L
0M
0;
1<
0R
1S
1$
1#
0(
0&
0%
1T
0"
0'
#209375
b1xx110000 !
1M
1;
1R
1(
1&
1%
0T
1"
1'
#212500
b1xx111000 !
b1xx101000 !
b1xx001000 !
1K
0L
0M
0;
0<
1=
1X
0R
0S
0$
0#
0(
0&
0%
16
14
13
#215625
b1xx101000 !
1M
1;
1R
1(
1&
1%
#218750
b1xx111000 !
b1xx011000 !
1L
0M
0;
1<
0R
1S
1$
1#
0(
0&
0%
1T
0"
0'
#221875
b1xx111000 !
1M
1;
1R
1(
1&
1%
0T
1"
1'
#225000
b1xx111100 !
b1xx110100 !
b1xx100100 !
b1xx000100 !
1J
0K
0L
0M
0;
0<
0=
1>
0X
0R
1Y
0S
0$
0#
12
11
0(
0&
0%
06
04
03
1Z
00
05
#228125
b1xx100100 !
1M
1;
1R
1(
1&
1%
#231250
b1xx110100 !
b1xx010100 !
1L
0M
0;
1<
0R
1S
1$
1#
0(
0&
0%
1T
0"
0'
#234375
b1xx110100 !
1M
1;
1R
1(
1&
1%
0T
1"
1'
#237500
b1xx111100 !
b1xx101100 !
b1xx001100 !
1K
0L
0M
0;
0<
1=
1X
0R
0S
0$
0#
0(
0&
0%
16
14
13
0Z
10
15
#240625
b1xx101100 !
1M
1;
1R
1(
1&
1%
#243750
b1xx111100 !
b1xx011100 !
1L
0M
0;
1<
0R
1S
1$
1#
0(
0&
0%
1T
0"
0'
#246875
b1xx111100 !
1M
1;
1R
1(
1&
1%
0T
1"
1'
#250000
b1xx111110 !
b1xx111010 !
b1xx110010 !
b1xx100010 !
b1xx000010 !
1I
0J
0K
0L
0M
0;
0<
0=
0>
1?
0X
1U
0R
0Y
0S
0$
0#
02
01
0(
0&
0%
1/
1-
1,
06
04
03
#253125
b1xx100010 !
1M
1;
1R
1(
1&
1%
#256250
b1xx110010 !
b1xx010010 !
1L
0M
0;
1<
0R
1S
1$
1#
0(
0&
0%
1T
0"
0'
#259375
b1xx110010 !
1M
1;
1R
1(
1&
1%
0T
1"
1'
#262500
b1xx111010 !
b1xx101010 !
b1xx001010 !
1K
0L
0M
0;
0<
1=
1X
0R
0S
0$
0#
0(
0&
0%
16
14
13
#265625
b1xx101010 !
1M
1;
1R
1(
1&
1%
#268750
b1xx111010 !
b1xx011010 !
1L
0M
0;
1<
0R
1S
1$
1#
0(
0&
0%
1T
0"
0'
#271875
b1xx111010 !
1M
1;
1R
1(
1&
1%
0T
1"
1'
#275000
b1xx111110 !
b1xx110110 !
b1xx100110 !
b1xx000110 !
1J
0K
0L
0M
0;
0<
0=
1>
0X
0R
1Y
0S
0$
0#
12
11
0(
0&
0%
06
04
03
1Z
00
05
#278125
b1xx100110 !
1M
1;
1R
1(
1&
1%
#281250
b1xx110110 !
b1xx010110 !
1L
0M
0;
1<
0R
1S
1$
1#
0(
0&
0%
1T
0"
0'
#284375
b1xx110110 !
1M
1;
1R
1(
1&
1%
0T
1"
1'
#287500
b1xx111110 !
b1xx101110 !
b1xx001110 !
1K
0L
0M
0;
0<
1=
1X
0R
0S
0$
0#
0(
0&
0%
16
14
13
0Z
10
15
#290625
b1xx101110 !
1M
1;
1R
1(
1&
1%
#293750
b1xx111110 !
b1xx011110 !
1L
0M
0;
1<
0R
1S
1$
1#
0(
0&
0%
1T
0"
0'
#296875
b1xx111110 !
1M
1;
1R
1(
1&
1%
0T
1"
1'
#300000
b1xx111111 !
b1xx111101 !
b1xx111001 !
b1xx110001 !
b1xx100001 !
b1xx000001 !
1H
0I
0J
0K
0L
0M
0;
0<
0=
0>
0?
1@
0X
0U
0R
0Y
1V
0S
0$
0#
1+
1*
02
01
0(
0&
0%
0/
0-
0,
06
04
03
1W
0)
0.
#303125
b1xx100001 !
1M
1;
1R
1(
1&
1%
#306250
b1xx110001 !
b1xx010001 !
1L
0M
0;
1<
0R
1S
1$
1#
0(
0&
0%
1T
0"
0'
#309375
b1xx110001 !
1M
1;
1R
1(
1&
1%
0T
1"
1'
#312500
b1xx111001 !
b1xx101001 !
b1xx001001 !
1K
0L
0M
0;
0<
1=
1X
0R
0S
0$
0#
0(
0&
0%
16
14
13
#315625
b1xx101001 !
1M
1;
1R
1(
1&
1%
#318750
b1xx111001 !
b1xx011001 !
1L
0M
0;
1<
0R
1S
1$
1#
0(
0&
0%
1T
0"
0'
#321875
b1xx111001 !
1M
1;
1R
1(
1&
1%
0T
1"
1'
#325000
b1xx111101 !
b1xx110101 !
b1xx100101 !
b1xx000101 !
1J
0K
0L
0M
0;
0<
0=
1>
0X
0R
1Y
0S
0$
0#
12
11
0(
0&
0%
06
04
03
1Z
00
05
#328125
b1xx100101 !
1M
1;
1R
1(
1&
1%
#331250
b1xx110101 !
b1xx010101 !
1L
0M
0;
1<
0R
1S
1$
1#
0(
0&
0%
1T
0"
0'
#334375
b1xx110101 !
1M
1;
1R
1(
1&
1%
0T
1"
1'
#337500
b1xx111101 !
b1xx101101 !
b1xx001101 !
1K
0L
0M
0;
0<
1=
1X
0R
0S
0$
0#
0(
0&
0%
16
14
13
0Z
10
15
#340625
b1xx101101 !
1M
1;
1R
1(
1&
1%
#343750
b1xx111101 !
b1xx011101 !
1L
0M
0;
1<
0R
1S
1$
1#
0(
0&
0%
1T
0"
0'
#346875
b1xx111101 !
1M
1;
1R
1(
1&
1%
0T
1"
1'
#350000
b1xx111111 !
b1xx111011 !
b1xx110011 !
b1xx100011 !
b1xx000011 !
1I
0J
0K
0L
0M
0;
0<
0=
0>
1?
0X
1U
0R
0Y
0S
0$
0#
02
01
0(
0&
0%
1/
1-
1,
06
04
03
0W
1)
1.
#353125
b1xx100011 !
1M
1;
1R
1(
1&
1%
#356250
b1xx110011 !
b1xx010011 !
1L
0M
0;
1<
0R
1S
1$
1#
0(
0&
0%
1T
0"
0'
#359375
b1xx110011 !
1M
1;
1R
1(
1&
1%
0T
1"
1'
#362500
b1xx111011 !
b1xx101011 !
b1xx001011 !
1K
0L
0M
0;
0<
1=
1X
0R
0S
0$
0#
0(
0&
0%
16
14
13
#365625
b1xx101011 !
1M
1;
1R
1(
1&
1%
#368750
b1xx111011 !
b1xx011011 !
1L
0M
0;
1<
0R
1S
1$
1#
0(
0&
0%
1T
0"
0'
#371875
b1xx111011 !
1M
1;
1R
1(
1&
1%
0T
1"
1'
#375000
b1xx111111 !
b1xx110111 !
b1xx100111 !
b1xx000111 !
1J
0K
0L
0M
0;
0<
0=
1>
0X
0R
1Y
0S
0$
0#
12
11
0(
0&
0%
06
04
03
1Z
00
05
#378125
b1xx100111 !
1M
1;
1R
1(
1&
1%
#381250
b1xx110111 !
b1xx010111 !
1L
0M
0;
1<
0R
1S
1$
1#
0(
0&
0%
1T
0"
0'
#384375
b1xx110111 !
1M
1;
1R
1(
1&
1%
0T
1"
1'
#387500
b1xx111111 !
b1xx101111 !
b1xx001111 !
1K
0L
0M
0;
0<
1=
1X
0R
0S
0$
0#
0(
0&
0%
16
14
13
0Z
10
15
#390625
b1xx101111 !
1M
1;
1R
1(
1&
1%
#393750
b1xx111111 !
b1xx011111 !
1L
0M
0;
1<
0R
1S
1$
1#
0(
0&
0%
1T
0"
0'
#396875
b1xx111111 !
1M
1;
1R
1(
1&
1%
0T
1"
1'
#400000
b11xx111111 !
b10xx111111 !
b10xx111110 !
b10xx111100 !
b10xx111000 !
b10xx110000 !
b10xx100000 !
b10xx000000 !
0H
0I
0J
0K
0L
0M
0P
1Q
17
08
0;
0<
0=
0>
0?
0@
0Y
0X
0V
0U
0S
0R
0(
0&
0%
0$
0#
0/
0-
0,
0+
0*
06
04
03
02
01
#403125
b10xx100000 !
1M
1;
1U
1/
1-
1,
#406250
b10xx110000 !
b10xx010000 !
1L
0M
0;
1<
0U
1V
1+
1*
0/
0-
0,
1W
0)
0.
#409375
b10xx110000 !
1M
1;
1U
1/
1-
1,
0W
1)
1.
#412500
b10xx111000 !
b10xx101000 !
b10xx001000 !
1K
0L
0M
0;
0<
1=
0U
1R
0V
0+
0*
1(
1&
1%
0/
0-
0,
#415625
b10xx101000 !
1M
1;
1U
1/
1-
1,
#418750
b10xx111000 !
b10xx011000 !
1L
0M
0;
1<
0U
1V
1+
1*
0/
0-
0,
1W
0)
0.
#421875
b10xx111000 !
1M
1;
1U
1/
1-
1,
0W
1)
1.
#425000
b10xx111100 !
b10xx110100 !
b10xx100100 !
b10xx000100 !
1J
0K
0L
0M
0;
0<
0=
1>
0U
0R
0V
1S
1$
1#
0+
0*
0(
0&
0%
0/
0-
0,
1T
0"
0'
#428125
b10xx100100 !
1M
1;
1U
1/
1-
1,
#431250
b10xx110100 !
b10xx010100 !
1L
0M
0;
1<
0U
1V
1+
1*
0/
0-
0,
1W
0)
0.
#434375
b10xx110100 !
1M
1;
1U
1/
1-
1,
0W
1)
1.
#437500
b10xx111100 !
b10xx101100 !
b10xx001100 !
1K
0L
0M
0;
0<
1=
0U
1R
0V
0+
0*
1(
1&
1%
0/
0-
0,
0T
1"
1'
#440625
b10xx101100 !
1M
1;
1U
1/
1-
1,
#443750
b10xx111100 !
b10xx011100 !
1L
0M
0;
1<
0U
1V
1+
1*
0/
0-
0,
1W
0)
0.
#446875
b10xx111100 !
1M
1;
1U
1/
1-
1,
0W
1)
1.
#450000
b10xx111110 !
b10xx111010 !
b10xx110010 !
b10xx100010 !
b10xx000010 !
1I
0J
0K
0L
0M
0;
0<
0=
0>
1?
1X
0U
0R
0V
0S
0$
0#
0+
0*
0(
0&
0%
0/
0-
0,
16
14
13
#453125
b10xx100010 !
1M
1;
1U
1/
1-
1,
#456250
b10xx110010 !
b10xx010010 !
1L
0M
0;
1<
0U
1V
1+
1*
0/
0-
0,
1W
0)
0.
#459375
b10xx110010 !
1M
1;
1U
1/
1-
1,
0W
1)
1.
#462500
b10xx111010 !
b10xx101010 !
b10xx001010 !
1K
0L
0M
0;
0<
1=
0U
1R
0V
0+
0*
1(
1&
1%
0/
0-
0,
#465625
b10xx101010 !
1M
1;
1U
1/
1-
1,
#468750
b10xx111010 !
b10xx011010 !
1L
0M
0;
1<
0U
1V
1+
1*
0/
0-
0,
1W
0)
0.
#471875
b10xx111010 !
1M
1;
1U
1/
1-
1,
0W
1)
1.
#475000
b10xx111110 !
b10xx110110 !
b10xx100110 !
b10xx000110 !
1J
0K
0L
0M
0;
0<
0=
1>
0U
0R
0V
1S
1$
1#
0+
0*
0(
0&
0%
0/
0-
0,
1T
0"
0'
#478125
b10xx100110 !
1M
1;
1U
1/
1-
1,
#481250
b10xx110110 !
b10xx010110 !
1L
0M
0;
1<
0U
1V
1+
1*
0/
0-
0,
1W
0)
0.
#484375
b10xx110110 !
1M
1;
1U
1/
1-
1,
0W
1)
1.
#487500
b10xx111110 !
b10xx101110 !
b10xx001110 !
1K
0L
0M
0;
0<
1=
0U
1R
0V
0+
0*
1(
1&
1%
0/
0-
0,
0T
1"
1'
#490625
b10xx101110 !
1M
1;
1U
1/
1-
1,
#493750
b10xx111110 !
b10xx011110 !
1L
0M
0;
1<
0U
1V
1+
1*
0/
0-
0,
1W
0)
0.
#496875
b10xx111110 !
1M
1;
1U
1/
1-
1,
0W
1)
1.
#500000
b10xx111111 !
b10xx111101 !
b10xx111001 !
b10xx110001 !
b10xx100001 !
b10xx000001 !
1H
0I
0J
0K
0L
0M
0;
0<
0=
0>
0?
1@
0X
0U
0R
1Y
0V
0S
0$
0#
0+
0*
12
11
0(
0&
0%
0/
0-
0,
06
04
03
1Z
00
05
#503125
b10xx100001 !
1M
1;
1U
1/
1-
1,
#506250
b10xx110001 !
b10xx010001 !
1L
0M
0;
1<
0U
1V
1+
1*
0/
0-
0,
1W
0)
0.
#509375
b10xx110001 !
1M
1;
1U
1/
1-
1,
0W
1)
1.
#512500
b10xx111001 !
b10xx101001 !
b10xx001001 !
1K
0L
0M
0;
0<
1=
0U
1R
0V
0+
0*
1(
1&
1%
0/
0-
0,
#515625
b10xx101001 !
1M
1;
1U
1/
1-
1,
#518750
b10xx111001 !
b10xx011001 !
1L
0M
0;
1<
0U
1V
1+
1*
0/
0-
0,
1W
0)
0.
#521875
b10xx111001 !
1M
1;
1U
1/
1-
1,
0W
1)
1.
#525000
b10xx111101 !
b10xx110101 !
b10xx100101 !
b10xx000101 !
1J
0K
0L
0M
0;
0<
0=
1>
0U
0R
0V
1S
1$
1#
0+
0*
0(
0&
0%
0/
0-
0,
1T
0"
0'
#528125
b10xx100101 !
1M
1;
1U
1/
1-
1,
#531250
b10xx110101 !
b10xx010101 !
1L
0M
0;
1<
0U
1V
1+
1*
0/
0-
0,
1W
0)
0.
#534375
b10xx110101 !
1M
1;
1U
1/
1-
1,
0W
1)
1.
#537500
b10xx111101 !
b10xx101101 !
b10xx001101 !
1K
0L
0M
0;
0<
1=
0U
1R
0V
0+
0*
1(
1&
1%
0/
0-
0,
0T
1"
1'
#540625
b10xx101101 !
1M
1;
1U
1/
1-
1,
#543750
b10xx111101 !
b10xx011101 !
1L
0M
0;
1<
0U
1V
1+
1*
0/
0-
0,
1W
0)
0.
#546875
b10xx111101 !
1M
1;
1U
1/
1-
1,
0W
1)
1.
#550000
b10xx111111 !
b10xx111011 !
b10xx110011 !
b10xx100011 !
b10xx000011 !
1I
0J
0K
0L
0M
0;
0<
0=
0>
1?
1X
0U
0R
0V
0S
0$
0#
0+
0*
0(
0&
0%
0/
0-
0,
16
14
13
0Z
10
15
#553125
b10xx100011 !
1M
1;
1U
1/
1-
1,
#556250
b10xx110011 !
b10xx010011 !
1L
0M
0;
1<
0U
1V
1+
1*
0/
0-
0,
1W
0)
0.
#559375
b10xx110011 !
1M
1;
1U
1/
1-
1,
0W
1)
1.
#562500
b10xx111011 !
b10xx101011 !
b10xx001011 !
1K
0L
0M
0;
0<
1=
0U
1R
0V
0+
0*
1(
1&
1%
0/
0-
0,
#565625
b10xx101011 !
1M
1;
1U
1/
1-
1,
#568750
b10xx111011 !
b10xx011011 !
1L
0M
0;
1<
0U
1V
1+
1*
0/
0-
0,
1W
0)
0.
#571875
b10xx111011 !
1M
1;
1U
1/
1-
1,
0W
1)
1.
#575000
b10xx111111 !
b10xx110111 !
b10xx100111 !
b10xx000111 !
1J
0K
0L
0M
0;
0<
0=
1>
0U
0R
0V
1S
1$
1#
0+
0*
0(
0&
0%
0/
0-
0,
1T
0"
0'
#578125
b10xx100111 !
1M
1;
1U
1/
1-
1,
#581250
b10xx110111 !
b10xx010111 !
1L
0M
0;
1<
0U
1V
1+
1*
0/
0-
0,
1W
0)
0.
#584375
b10xx110111 !
1M
1;
1U
1/
1-
1,
0W
1)
1.
#587500
b10xx111111 !
b10xx101111 !
b10xx001111 !
1K
0L
0M
0;
0<
1=
0U
1R
0V
0+
0*
1(
1&
1%
0/
0-
0,
0T
1"
1'
#590625
b10xx101111 !
1M
1;
1U
1/
1-
1,
#593750
b10xx111111 !
b10xx011111 !
1L
0M
0;
1<
0U
1V
1+
1*
0/
0-
0,
1W
0)
0.
#596875
b10xx111111 !
1M
1;
1U
1/
1-
1,
0W
1)
1.
#600000
b11xx111111 !
b11xx111110 !
b11xx111100 !
b11xx111000 !
b11xx110000 !
b11xx100000 !
b11xx000000 !
0H
0I
0J
0K
0L
0M
1P
18
0;
0<
0=
0>
0?
0@
0Y
0X
0V
0U
0S
0R
0(
0&
0%
0$
0#
0/
0-
0,
0+
0*
06
04
03
02
01
#603125
b11xx100000 !
1M
1;
1U
1/
1-
1,
#606250
b11xx110000 !
b11xx010000 !
1L
0M
0;
1<
0U
1V
1+
1*
0/
0-
0,
1W
0)
0.
#609375
b11xx110000 !
1M
1;
1U
1/
1-
1,
0W
1)
1.
#612500
b11xx111000 !
b11xx101000 !
b11xx001000 !
1K
0L
0M
0;
0<
1=
0U
1R
0V
0+
0*
1(
1&
1%
0/
0-
0,
#615625
b11xx101000 !
1M
1;
1U
1/
1-
1,
#618750
b11xx111000 !
b11xx011000 !
1L
0M
0;
1<
0U
1V
1+
1*
0/
0-
0,
1W
0)
0.
#621875
b11xx111000 !
1M
1;
1U
1/
1-
1,
0W
1)
1.
#625000
b11xx111100 !
b11xx110100 !
b11xx100100 !
b11xx000100 !
1J
0K
0L
0M
0;
0<
0=
1>
0U
0R
0V
1S
1$
1#
0+
0*
0(
0&
0%
0/
0-
0,
1T
0"
0'
#628125
b11xx100100 !
1M
1;
1U
1/
1-
1,
#631250
b11xx110100 !
b11xx010100 !
1L
0M
0;
1<
0U
1V
1+
1*
0/
0-
0,
1W
0)
0.
#634375
b11xx110100 !
1M
1;
1U
1/
1-
1,
0W
1)
1.
#637500
b11xx111100 !
b11xx101100 !
b11xx001100 !
1K
0L
0M
0;
0<
1=
0U
1R
0V
0+
0*
1(
1&
1%
0/
0-
0,
0T
1"
1'
#640625
b11xx101100 !
1M
1;
1U
1/
1-
1,
#643750
b11xx111100 !
b11xx011100 !
1L
0M
0;
1<
0U
1V
1+
1*
0/
0-
0,
1W
0)
0.
#646875
b11xx111100 !
1M
1;
1U
1/
1-
1,
0W
1)
1.
#650000
b11xx111110 !
b11xx111010 !
b11xx110010 !
b11xx100010 !
b11xx000010 !
1I
0J
0K
0L
0M
0;
0<
0=
0>
1?
1X
0U
0R
0V
0S
0$
0#
0+
0*
0(
0&
0%
0/
0-
0,
16
14
13
#653125
b11xx100010 !
1M
1;
1U
1/
1-
1,
#656250
b11xx110010 !
b11xx010010 !
1L
0M
0;
1<
0U
1V
1+
1*
0/
0-
0,
1W
0)
0.
#659375
b11xx110010 !
1M
1;
1U
1/
1-
1,
0W
1)
1.
#662500
b11xx111010 !
b11xx101010 !
b11xx001010 !
1K
0L
0M
0;
0<
1=
0U
1R
0V
0+
0*
1(
1&
1%
0/
0-
0,
#665625
b11xx101010 !
1M
1;
1U
1/
1-
1,
#668750
b11xx111010 !
b11xx011010 !
1L
0M
0;
1<
0U
1V
1+
1*
0/
0-
0,
1W
0)
0.
#671875
b11xx111010 !
1M
1;
1U
1/
1-
1,
0W
1)
1.
#675000
b11xx111110 !
b11xx110110 !
b11xx100110 !
b11xx000110 !
1J
0K
0L
0M
0;
0<
0=
1>
0U
0R
0V
1S
1$
1#
0+
0*
0(
0&
0%
0/
0-
0,
1T
0"
0'
#678125
b11xx100110 !
1M
1;
1U
1/
1-
1,
#681250
b11xx110110 !
b11xx010110 !
1L
0M
0;
1<
0U
1V
1+
1*
0/
0-
0,
1W
0)
0.
#684375
b11xx110110 !
1M
1;
1U
1/
1-
1,
0W
1)
1.
#687500
b11xx111110 !
b11xx101110 !
b11xx001110 !
1K
0L
0M
0;
0<
1=
0U
1R
0V
0+
0*
1(
1&
1%
0/
0-
0,
0T
1"
1'
#690625
b11xx101110 !
1M
1;
1U
1/
1-
1,
#693750
b11xx111110 !
b11xx011110 !
1L
0M
0;
1<
0U
1V
1+
1*
0/
0-
0,
1W
0)
0.
#696875
b11xx111110 !
1M
1;
1U
1/
1-
1,
0W
1)
1.
#700000
b11xx111111 !
b11xx111101 !
b11xx111001 !
b11xx110001 !
b11xx100001 !
b11xx000001 !
1H
0I
0J
0K
0L
0M
0;
0<
0=
0>
0?
1@
0X
0U
0R
1Y
0V
0S
0$
0#
0+
0*
12
11
0(
0&
0%
0/
0-
0,
06
04
03
1Z
00
05
#703125
b11xx100001 !
1M
1;
1U
1/
1-
1,
