Lab6/Part3/simulation/qsim/part3.msim.vcd
$comment
	File created using the following command:
		vcd file part3.msim.vcd -direction
$end
$date
	Tue Nov 01 09:29:55 2016
$end
$version
	ModelSim Version 10.4d
$end
$timescale
	1ps
$end

$scope module part3_vlg_vec_tst $end
$var reg 1 ! CLOCK_50 $end
$var reg 2 " KEY [1:0] $end
$var reg 3 # SW [2:0] $end
$var wire 1 $ LEDR [0] $end

$scope module i1 $end
$var wire 1 % gnd $end
$var wire 1 & vcc $end
$var wire 1 ' unknown $end
$var tri1 1 ( devclrn $end
$var tri1 1 ) devpor $end
$var tri1 1 * devoe $end
$var wire 1 + SW[0]~input_o $end
$var wire 1 , SW[1]~input_o $end
$var wire 1 - SW[2]~input_o $end
$var wire 1 . KEY[0]~input_o $end
$var wire 1 / KEY[1]~input_o $end
$var wire 1 0 CLOCK_50~input_o $end
$var wire 1 1 ~QUARTUS_CREATED_GND~I_combout $end
$upscope $end
$upscope $end
$enddefinitions $end
#0
$dumpvars
0!
b0 "
b0 #
0$
0%
1&
x'
1(
1)
1*
0+
0,
0-
0.
0/
00
01
$end
#25000
1!
10
#50000
b100 #
0!
1-
00
#75000
1!
10
#100000
b110 #
b10 #
0!
1,
0-
00
#125000
1!
10
#150000
b110 #
0!
1-
00
#175000
1!
10
#200000
b111 #
b101 #
b1 #
0!
1+
0,
0-
00
#225000
1!
10
#250000
b101 #
0!
1-
00
#275000
1!
10
#300000
b111 #
b11 #
0!
1,
0-
00
#325000
1!
10
#350000
b111 #
0!
1-
00
#375000
1!
10
#400000
b10 "
b110 #
b100 #
b0 #
0!
0+
0,
0-
1/
00
#425000
1!
10
#450000
b100 #
0!
1-
00
#475000
1!
10
#500000
b110 #
b10 #
0!
1,
0-
00
#525000
1!
10
#550000
b110 #
0!
1-
00
#575000
1!
10
#600000
b111 #
b101 #
b1 #
0!
1+
0,
0-
00
#625000
1!
10
#650000
b101 #
0!
1-
00
#675000
1!
10
#700000
b111 #
b11 #
0!
1,
0-
00
#725000
1!
10
#750000
b111 #
0!
1-
00
#775000
1!
10
#800000
b11 "
b1 "
b110 #
b100 #
b0 #
0!
0+
0,
0-
1.
0/
00
#825000
1!
10
#850000
b100 #
0!
1-
00
#875000
1!
10
#900000
b110 #
b10 #
0!
1,
0-
00
#925000
1!
10
#950000
b110 #
0!
1-
00
#975000
1!
10
#1000000
b111 #
b101 #
b1 #
0!
1+
0,
0-
00
#1025000
1!
10
#1050000
b101 #
0!
1-
00
#1075000
1!
10
#1100000
b111 #
b11 #
0!
1,
0-
00
#1125000
1!
10
#1150000
b111 #
0!
1-
00
#1175000
1!
10
#1200000
b11 "
b110 #
b100 #
b0 #
0!
0+
0,
0-
1/
00
#1225000
1!
10
#1250000
b100 #
0!
1-
00
#1275000
1!
10
#1300000
b110 #
b10 #
0!
1,
0-
00
#1325000
1!
10
#1350000
b110 #
0!
1-
00
#1375000
1!
10
#1400000
b111 #
b101 #
b1 #
0!
1+
0,
0-
00
#1425000
1!
10
#1450000
b101 #
0!
1-
00
#1475000
1!
10
#1500000
b111 #
b11 #
0!
1,
0-
00
#1525000
1!
10
#1550000
b111 #
0!
1-
00
