Lab2-3/part2/simulation/qsim/part2.msim.vcd
$comment
	File created using the following command:
		vcd file part2.msim.vcd -direction
$end
$date
	Tue Sep 27 09:45:31 2016
$end
$version
	ModelSim Version 10.4d
$end
$timescale
	1ps
$end

$scope module part2_vlg_vec_tst $end
$var reg 10 ! SW [0:9] $end
$var wire 1 " LEDR [0] $end
$var wire 1 # LEDR [1] $end
$var wire 1 $ LEDR [2] $end
$var wire 1 % LEDR [3] $end
$var wire 1 & LEDR [4] $end
$var wire 1 ' LEDR [5] $end
$var wire 1 ( LEDR [6] $end
$var wire 1 ) LEDR [7] $end
$var wire 1 * LEDR [8] $end
$var wire 1 + LEDR [9] $end

$scope module i1 $end
$var wire 1 , gnd $end
$var wire 1 - vcc $end
$var wire 1 . unknown $end
$var tri1 1 / devclrn $end
$var tri1 1 0 devpor $end
$var tri1 1 1 devoe $end
$var wire 1 2 SW[8]~input_o $end
$var wire 1 3 ~QUARTUS_CREATED_GND~I_combout $end
$var wire 1 4 SW[7]~input_o $end
$var wire 1 5 SW[3]~input_o $end
$var wire 1 6 SW[9]~input_o $end
$var wire 1 7 M~0_combout $end
$var wire 1 8 SW[6]~input_o $end
$var wire 1 9 SW[2]~input_o $end
$var wire 1 : M~1_combout $end
$var wire 1 ; SW[1]~input_o $end
$var wire 1 < SW[5]~input_o $end
$var wire 1 = M~2_combout $end
$var wire 1 > SW[4]~input_o $end
$var wire 1 ? SW[0]~input_o $end
$var wire 1 @ M~3_combout $end
$upscope $end
$upscope $end
$enddefinitions $end
#0
$dumpvars
b1100000x0 !
0+
0*
0)
0(
0'
0&
0%
1$
1#
0"
0,
1-
x.
1/
10
11
x2
03
04
05
06
07
08
19
1:
1;
0<
1=
0>
0?
0@
$end
#370
b100000x0 !
0;
0=
0#
#712
b0x0 !
09
0:
0$
#1015
b10000000x0 !
1?
1@
1"
#3948
b0x0 !
0?
0@
0"
#4312
b100000x0 !
19
1:
1$
#4770
b1100000x0 !
1;
1=
1#
#7036
b100000x0 !
0;
0=
0#
#7378
b0x0 !
09
0:
0$
#7681
b10000000x0 !
1?
1@
1"
#8037
b10010000x0 !
15
17
1%
#10614
b10000x0 !
0?
0@
0"
#10978
b110000x0 !
19
1:
1$
#11436
b1110000x0 !
1;
1=
1#
#13702
b110000x0 !
0;
0=
0#
#14044
b10000x0 !
09
0:
0$
#14347
b10010000x0 !
1?
1@
1"
#17280
b10000x0 !
0?
0@
0"
#17644
b110000x0 !
19
1:
1$
#18102
b1110000x0 !
1;
1=
1#
#18437
b1100000x0 !
05
07
0%
#20000
b11100000x0 !
b11110000x0 !
15
1?
1@
17
1%
1"
#21000
b1110000x0 !
0?
0@
0"
#21153
b110000x0 !
0;
0=
0#
#21803
b100000x0 !
05
07
0%
#23820
b1100000x0 !
1;
1=
1#
#23839
b1000000x0 !
09
0:
0$
#24703
b1010000x0 !
15
17
1%
#26700
b11010000x0 !
1?
1@
1"
#26803
b11000000x0 !
05
07
0%
#27819
b10000000x0 !
0;
0=
0#
#28839
b10100000x0 !
19
1:
1$
#29703
b10110000x0 !
15
17
1%
#30000
b110000x0 !
b10000x0 !
09
0?
0@
0:
0$
0"
#30486
b1010000x0 !
1;
1=
1#
#31374
b1000000x0 !
05
07
0%
#32340
b1100000x0 !
19
1:
1$
#32941
b1110000x0 !
15
17
1%
#33386
b11110000x0 !
1?
1@
1"
#34485
b10110000x0 !
0;
0=
0#
#34707
b10100000x0 !
05
07
0%
#34986
b100000x0 !
0?
0@
0"
#36274
b110000x0 !
15
17
1%
#37152
b1110000x0 !
1;
1=
1#
#38040
b1100000x0 !
05
07
0%
#38140
b1000000x0 !
09
0:
0$
#38386
b11000000x0 !
1?
1@
1"
#39607
b11010000x0 !
15
17
1%
#39986
b1010000x0 !
0?
0@
0"
#40000
b10000x0 !
b0x0 !
b10000000x0 !
05
0;
1?
1@
0=
07
0%
0#
1"
#40530
b11000000x0 !
1;
1=
1#
#42340
b11100000x0 !
19
1:
1$
#42833
b1100000x0 !
0?
0@
0"
#42996
b100000x0 !
0;
0=
0#
#44288
b110000x0 !
15
17
1%
#47196
b1110000x0 !
1;
1=
1#
#48140
b1010000x0 !
09
0:
0$
#48333
b11010000x0 !
1?
1@
1"
#48588
b11000000x0 !
05
07
0%
#49662
b10000000x0 !
0;
0=
0#
#50000
b10100000x0 !
19
1:
1$
#50668
b10000000x0 !
09
0:
0$
#52402
b10100000x0 !
19
1:
1$
#52833
b100000x0 !
0?
0@
0"
#53862
b1100000x0 !
1;
1=
1#
#54001
b1000000x0 !
09
0:
0$
#54288
b1010000x0 !
15
17
1%
#55735
b1110000x0 !
19
1:
1$
#56328
b110000x0 !
0;
0=
0#
#57334
b10000x0 !
09
0:
0$
#58333
b10010000x0 !
1?
1@
1"
#58588
b10000000x0 !
05
07
0%
#59068
b10100000x0 !
19
1:
1$
#60000
b11100000x0 !
1;
1=
1#
#61818
b11000000x0 !
09
0:
0$
#62045
b11010000x0 !
15
17
1%
#63185
b11110000x0 !
19
1:
1$
#63339
b1110000x0 !
0?
0@
0"
#65114
b110000x0 !
0;
0=
0#
#65151
b10000x0 !
09
0:
0$
#66518
b110000x0 !
19
1:
1$
#68484
b10000x0 !
09
0:
0$
#69439
b10010000x0 !
1?
1@
1"
#69851
b10110000x0 !
19
1:
1$
#70000
b10010000x0 !
09
0:
0$
#70934
b10110000x0 !
19
1:
1$
#72045
b10100000x0 !
05
07
0%
#72934
b10000000x0 !
09
0:
0$
#73339
b0x0 !
0?
0@
0"
#75934
b100000x0 !
19
1:
1$
#76714
b1100000x0 !
1;
1=
1#
#77934
b1000000x0 !
09
0:
0$
#79439
b11000000x0 !
1?
1@
1"
#80000
b11010000x0 !
b11110000x0 !
b1110000x0 !
15
19
0?
0@
1:
17
1%
1$
0"
#80464
b1100000x0 !
05
07
0%
#83914
b1110000x0 !
15
17
1%
#84332
b110000x0 !
0;
0=
0#
#85464
b100000x0 !
05
07
0%
#85604
b10100000x0 !
1?
1@
1"
#87812
b10000000x0 !
09
0:
0$
#88914
b10010000x0 !
15
17
1%
#89704
b10000x0 !
0?
0@
0"
#90000
b10010000x0 !
1?
1@
1"
#91114
b10000000x0 !
05
07
0%
#94345
b0x0 !
0?
0@
0"
#95732
b1000000x0 !
1;
1=
1#
#98114
b1010000x0 !
15
17
1%
#98412
b1110000x0 !
19
1:
1$
#100000
b1110000x1 !
b1010000x1 !
16
09
0:
0=
07
0%
0#
0$
#100431
b10000x1 !
0;
#101114
b0x1 !
05
#101126
b100000x1 !
19
#101965
b1100000x1 !
1;
#102345
b11100000x1 !
1?
#103125
b11000000x1 !
09
#103764
b10000000x1 !
0;
#104459
b10100000x1 !
19
#105298
b11100000x1 !
1;
#106458
b11000000x1 !
09
#107097
b10000000x1 !
0;
#107792
b10100000x1 !
19
#108114
b10110000x1 !
15
#108631
b11110000x1 !
1;
#109791
b11010000x1 !
09
#110286
b10010000x1 !
0;
#110659
b10000000x1 !
05
#111418
b0x1 !
0?
#112286
b1000000x1 !
1;
#113959
b1100000x1 !
19
#115286
b100000x1 !
0;
#115759
b110000x1 !
15
#116518
b10110000x1 !
1?
#117286
b11110000x1 !
1;
#119659
b11010000x1 !
09
#120606
b11110000x1 !
19
#120659
b11100000x1 !
05
#121418
b1100000x1 !
0?
#123952
b100000x1 !
0;
#124306
b0x1 !
09
#125759
b10000x1 !
15
#126518
b10010000x1 !
1?
#129152
b11010000x1 !
1;
#130000
b11000000x1 !
b10000000x1 !
05
0;
#130109
b10010000x1 !
15
#131355
b10000x1 !
0?
#132869
b110000x1 !
19
#133009
b100000x1 !
05
#135109
b110000x1 !
15
#135969
b10000x1 !
09
#136055
b10010000x1 !
1?
#138009
b10000000x1 !
05
#138187
b11000000x1 !
1;
#140482
b11010000x1 !
15
#142869
b11110000x1 !
19
#144682
b11100000x1 !
05
#145969
b11000000x1 !
09
#146387
b10000000x1 !
0;
#150153
b10100000x1 !
19
#150482
b10110000x1 !
15
#151019
b110000x1 !
0?
#152209
b1110000x1 !
1;
#154153
b1010000x1 !
09
#154209
b10000x1 !
0;
#154682
b0x1 !
05
#157209
b1000000x1 !
1;
#159209
b0x1 !
0;
#159819
b10000000x1 !
1?
#160000
b10010000x1 !
15
#160153
b10110000x1 !
19
#160583
b11110000x1 !
1;
#160680
b1110000x1 !
0?
#160785
b1100000x1 !
05
#162183
b100000x1 !
0;
#164153
b0x1 !
09
#164413
b10000000x1 !
1?
#165583
b11000000x1 !
1;
#166085
b11010000x1 !
15
#167183
b10010000x1 !
0;
#167346
b10000x1 !
0?
#170000
b110000x1 !
b1110000x1 !
19
1;
#171079
b11110000x1 !
1?
#171640
b11100000x1 !
05
#171711
b10100000x1 !
0;
#172700
b10000000x1 !
09
#174012
b0x1 !
0?
#175773
b10000x1 !
15
#176111
b1010000x1 !
1;
#177745
b11010000x1 !
1?
#178306
b11000000x1 !
05
#179400
b11100000x1 !
19
#181418
b10100000x1 !
0;
#182439
b10110000x1 !
15
#182700
b10010000x1 !
09
#183252
b11010000x1 !
1;
#184751
b10010000x1 !
0;
#184972
b10000000x1 !
05
#186210
b0x1 !
0?
#186585
b1000000x1 !
1;
#188084
b0x1 !
0;
#189105
b10000x1 !
15
#189400
b110000x1 !
19
#189918
b1110000x1 !
1;
#190080
b1100000x1 !
05
#191183
b100000x1 !
0;
#193280
b110000x1 !
15
#193771
b10000x1 !
09
#194410
b10010000x1 !
1?
#194983
b11010000x1 !
1;
#195080
b11000000x1 !
05
#197849
b10000000x1 !
0;
#198280
b10010000x1 !
15
#200000
b10010000x0 !
b10000000x0 !
06
05
1@
1"
#200054
b0x0 !
0?
0@
0"
#201649
b1000000x0 !
1;
1=
1#
#203145
b1010000x0 !
15
17
1%
#204054
b11010000x0 !
1?
1@
1"
#204515
b10010000x0 !
0;
0=
0#
#206571
b10110000x0 !
19
1:
1$
#206720
b110000x0 !
0?
0@
0"
#208315
b1110000x0 !
1;
1=
1#
#208645
b1100000x0 !
05
07
0%
#210000
b1000000x0 !
09
0:
0$
#210720
b11000000x0 !
1?
1@
1"
#211277
b10000000x0 !
0;
0=
0#
#213025
b10010000x0 !
15
17
1%
#213386
b10000x0 !
0?
0@
0"
#214925
b0x0 !
05
07
0%
#215273
b100000x0 !
19
1:
1$
#215744
b1100000x0 !
1;
1=
1#
#217386
b11100000x0 !
1?
1@
1"
#217943
b10100000x0 !
0;
0=
0#
#218025
b10110000x0 !
15
17
1%
#219925
b10100000x0 !
05
07
0%
#220641
b10110000x0 !
15
17
1%
#221673
b10010000x0 !
09
0:
0$
#222104
b10000x0 !
0?
0@
0"
#222410
b1010000x0 !
1;
1=
1#
#223641
b1000000x0 !
05
07
0%
#224609
b0x0 !
0;
0=
0#
#225238
b10000000x0 !
1?
1@
1"
#228770
b0x0 !
0?
0@
0"
#229076
b1000000x0 !
1;
1=
1#
#230641
b1010000x0 !
15
17
1%
#230699
b1110000x0 !
19
1:
1$
#231904
b11110000x0 !
1?
1@
1"
#232699
b11010000x0 !
09
0:
0$
#233641
b11000000x0 !
05
07
0%
#235114
b10000000x0 !
0;
0=
0#
#235436
b0x0 !
0?
0@
0"
#235699
b100000x0 !
19
1:
1$
#237699
b0x0 !
09
0:
0$
#238570
b10000000x0 !
1?
1@
1"
#240000
b10100000x0 !
19
1:
1$
#240589
b10110000x0 !
15
17
1%
#242155
b10100000x0 !
05
07
0%
#243514
b11100000x0 !
1;
1=
1#
#243922
b11110000x0 !
15
17
1%
#245488
b11100000x0 !
05
07
0%
#246116
b11000000x0 !
09
0:
0$
#246208
b1000000x0 !
0?
0@
0"
#247255
b1010000x0 !
15
17
1%
#248821
b1000000x0 !
05
07
0%
#250000
b0x0 !
b10000x0 !
15
0;
0=
17
1%
0#
#250173
b0x0 !
05
07
0%
#253173
b10000x0 !
15
17
1%
#255173
b0x0 !
05
07
0%
#255823
b1000000x0 !
1;
1=
1#
#257208
b11000000x0 !
1?
1@
1"
#257916
b11100000x0 !
19
1:
1$
#258173
b11110000x0 !
15
17
1%
#259123
b10110000x0 !
0;
0=
0#
#260000
b110000x0 !
0?
0@
0"
#260383
b100000x0 !
05
07
0%
#260984
b10100000x0 !
1?
1@
1"
#262019
b10000000x0 !
09
0:
0$
#262483
b10010000x0 !
b10000x0 !
15
0?
0@
17
1%
0"
#263716
b0x0 !
05
07
0%
#264317
b10000000x0 !
1?
1@
1"
#265816
b10010000x0 !
b10000x0 !
15
0?
0@
17
1%
0"
#265823
b1010000x0 !
1;
1=
1#
#267049
b1000000x0 !
05
07
0%
#267650
b11000000x0 !
1?
1@
1"
#269123
b10000000x0 !
0;
0=
0#
#269149
b10010000x0 !
b10000x0 !
15
0?
0@
17
1%
0"
#270000
b0x0 !
b10000000x0 !
05
1?
1@
07
0%
1"
#272077
b0x0 !
0?
0@
0"
#274860
b1000000x0 !
1;
1=
1#
#275819
b1100000x0 !
19
1:
1$
#276544
b11100000x0 !
1?
1@
1"
#278060
b10100000x0 !
0;
0=
0#
#278743
b100000x0 !
0?
0@
0"
#281216
b0x0 !
09
0:
0$
#281347
b10000x0 !
15
17
1%
#283210
b10010000x0 !
1?
1@
1"
#284860
b11010000x0 !
1;
1=
1#
#285409
b1010000x0 !
0?
0@
0"
#287347
b1000000x0 !
05
07
0%
#288060
b0x0 !
0;
0=
0#
#289876
b10000000x0 !
1?
1@
1"
#290000
b10010000x0 !
b11010000x0 !
15
1;
1=
17
1%
1#
#290227
b1010000x0 !
0?
0@
0"
#290398
b1000000x0 !
05
07
0%
#291816
b1100000x0 !
19
1:
1$
#291827
b11100000x0 !
1?
1@
1"
#292717
b10100000x0 !
0;
0=
0#
#293560
b100000x0 !
0?
0@
0"
#295160
b10100000x0 !
1?
1@
1"
#296893
b100000x0 !
0?
0@
0"
#297917
b1100000x0 !
1;
1=
1#
#298493
b11100000x0 !
1?
1@
1"
#300000
b11100000x1 !
b11000000x1 !
b1000000x1 !
16
09
0?
0@
0:
0=
0#
0$
0"
#300370
b1100000x1 !
19
#300733
b11100000x1 !
1?
#301469
b11000000x1 !
09
#302032
b1000000x1 !
0?
#302398
b1010000x1 !
15
#302717
b10000x1 !
0;
#303703
b110000x1 !
19
#304066
b10110000x1 !
1?
#304802
b10010000x1 !
09
#305365
b10000x1 !
0?
#307036
b110000x1 !
19
#307399
b10110000x1 !
1?
#307917
b11110000x1 !
1;
#308135
b11010000x1 !
09
#308698
b1010000x1 !
0?
#310000
b1000000x1 !
b0x1 !
b10000000x1 !
05
0;
1?
#310297
b10100000x1 !
19
#310495
b10110000x1 !
15
#310855
b11110000x1 !
1;
#312303
b1110000x1 !
0?
#313345
b1100000x1 !
05
#313397
b1000000x1 !
09
#314455
b0x1 !
0;
#315495
b10000x1 !
15
#318345
b0x1 !
05
#320000
b10000x1 !
15
#320297
b110000x1 !
19
#320855
b1110000x1 !
1;
#321703
b11110000x1 !
1?
#322900
b11100000x1 !
05
#323397
b11000000x1 !
09
#324455
b10000000x1 !
0;
#328700
b10010000x1 !
15
#330000
b11010000x1 !
1;
#330663
b10010000x1 !
0;
#331702
b10000x1 !
0?
#331883
b110000x1 !
19
#332900
b100000x1 !
05
#334033
b0x1 !
09
#336163
b1000000x1 !
1;
#336883
b1100000x1 !
19
#337202
b11100000x1 !
1?
#338700
b11110000x1 !
15
#339033
b11010000x1 !
09
#340000
b1010000x1 !
b1110000x1 !
19
0?
#340663
b110000x1 !
0;
#344140
b10000x1 !
09
#344734
b10010000x1 !
1?
#346163
b11010000x1 !
1;
#348334
b1010000x1 !
0?
#349139
b1000000x1 !
05
#349140
b1100000x1 !
19
#350000
b11100000x1 !
1?
#351154
b10100000x1 !
0;
#351403
b100000x1 !
0?
#353553
b10100000x1 !
1?
#353554
b11100000x1 !
1;
#354140
b11000000x1 !
09
#356154
b10000000x1 !
0;
#356403
b0x1 !
0?
#357339
b10000x1 !
15
#358553
b10010000x1 !
1?
#358554
b11010000x1 !
1;
#359140
b11110000x1 !
19
#360000
b11100000x1 !
b1100000x1 !
05
0?
#360586
b11100000x1 !
1?
#363508
b11000000x1 !
09
#363886
b1000000x1 !
0?
#364452
b1010000x1 !
15
#365283
b10000x1 !
0;
#368008
b110000x1 !
19
#368752
b100000x1 !
05
#370000
b110000x1 !
15
#370163
b100000x1 !
05
#370586
b10100000x1 !
1?
#373508
b10000000x1 !
09
#373763
b10010000x1 !
15
#373886
b10000x1 !
0?
#375683
b1010000x1 !
1;
#376829
b1000000x1 !
05
#378008
b1100000x1 !
19
#380000
b11100000x1 !
b11000000x1 !
09
1?
#380429
b11010000x1 !
15
#380683
b10010000x1 !
0;
#381423
b10000x1 !
0?
#383495
b0x1 !
05
#383773
b100000x1 !
19
#385890
b10100000x1 !
1?
#386183
b11100000x1 !
1;
#387095
b11110000x1 !
15
#388089
b1110000x1 !
0?
#390683
b110000x1 !
0;
#391547
b100000x1 !
05
#392373
b0x1 !
09
#392556
b10000000x1 !
1?
#394755
b0x1 !
0?
#396183
b1000000x1 !
1;
#398547
b1010000x1 !
15
#399222
b11010000x1 !
1?
#400000
b11010000x0 !
b11110000x0 !
b11100000x0 !
06
05
19
1:
1@
1=
1#
1"
1$
#400189
b11110000x0 !
15
17
1%
#400200
b10110000x0 !
0;
0=
0#
#401588
b10100000x0 !
05
07
0%
#402712
b100000x0 !
0?
0@
0"
#403402
b0x0 !
09
0:
0$
#403522
b10000x0 !
15
17
1%
#404921
b0x0 !
05
07
0%
#406512
b10000000x0 !
1?
1@
1"
#406855
b10010000x0 !
15
17
1%
#408254
b10000000x0 !
05
07
0%
#409378
b0x0 !
0?
0@
0"
#410212
b10000x0 !
15
17
1%
#411600
b1010000x0 !
1;
1=
1#
#413178
b11010000x0 !
1?
1@
1"
#413312
b11000000x0 !
05
07
0%
#414402
b11100000x0 !
19
1:
1$
#416044
b1100000x0 !
0?
0@
0"
#419844
b11100000x0 !
1?
1@
1"
#420000
b10100000x0 !
b10000000x0 !
b0x0 !
09
0;
0?
0@
0=
0:
0$
0#
0"
#420212
b10000x0 !
15
17
1%
#420806
b10010000x0 !
1?
1@
1"
#423312
b10000000x0 !
05
07
0%
#424106
b10100000x0 !
19
1:
1$
#426409
b11100000x0 !
1;
1=
1#
#427106
b11000000x0 !
09
0:
0$
#428006
b1000000x0 !
0?
0@
0"
#430000
b1010000x0 !
15
17
1%
#430975
b1000000x0 !
05
07
0%
#433009
b0x0 !
0;
0=
0#
#433325
b10000x0 !
15
17
1%
#434106
b110000x0 !
19
1:
1$
#435975
b100000x0 !
05
07
0%
#437106
b0x0 !
09
0:
0$
#438325
b10000x0 !
15
17
1%
#440000
b1010000x0 !
b1110000x0 !
19
1;
1=
1:
1$
1#
#440769
b110000x0 !
0;
0=
0#
#441938
b100000x0 !
05
07
0%
#443364
b10100000x0 !
1?
1@
1"
#444342
b10000000x0 !
09
0:
0$
#444538
b10010000x0 !
15
17
1%
#446938
b10000000x0 !
05
07
0%
#447664
b0x0 !
0?
0@
0"
#449538
b10000x0 !
15
17
1%
#450000
b0x0 !
05
07
0%
#450822
b10000x0 !
15
17
1%
#453169
b1010000x0 !
1;
1=
1#
#453364
b11010000x0 !
1?
1@
1"
#455622
b11000000x0 !
05
07
0%
#457664
b1000000x0 !
0?
0@
0"
#457942
b1100000x0 !
19
1:
1$
#460000
b11100000x0 !
b11000000x0 !
09
1?
1@
0:
0$
1"
#460218
b1000000x0 !
0?
0@
0"
#460516
b1100000x0 !
19
1:
1$
#460822
b1110000x0 !
15
17
1%
#462043
b110000x0 !
0;
0=
0#
#462415
b10000x0 !
09
0:
0$
#463849
b110000x0 !
19
1:
1$
#464993
b1110000x0 !
1;
1=
1#
#465622
b1100000x0 !
05
07
0%
#465748
b1000000x0 !
09
0:
0$
#467043
b0x0 !
0;
0=
0#
#467182
b100000x0 !
19
1:
1$
#469081
b0x0 !
09
0:
0$
#469618
b10000000x0 !
1?
1@
1"
#469993
b11000000x0 !
1;
1=
1#
#470000
b11100000x0 !
19
1:
1$
#471549
b10100000x0 !
0;
0=
0#
#472875
b10110000x0 !
15
17
1%
#474599
b11110000x0 !
1;
1=
1#
#476193
b11010000x0 !
09
0:
0$
#476549
b10010000x0 !
0;
0=
0#
#479475
b10000000x0 !
05
07
0%
#479599
b11000000x0 !
1;
1=
1#
#480000
b10000000x0 !
0;
0=
0#
#480121
b0x0 !
0?
0@
0"
#481763
b1000000x0 !
1;
1=
1#
#483854
b11000000x0 !
1?
1@
1"
#485063
b10000000x0 !
0;
0=
0#
#485993
b10100000x0 !
19
1:
1$
#486787
b100000x0 !
0?
0@
0"
#490000
b110000x0 !
15
17
1%
#490478
b10000x0 !
09
0:
0$
#490520
b10010000x0 !
1?
1@
1"
#491146
b10000000x0 !
05
07
0%
#491763
b11000000x0 !
1;
1=
1#
#493453
b1000000x0 !
0?
0@
0"
#495011
b1100000x0 !
19
1:
1$
#495063
b100000x0 !
0;
0=
0#
#496346
b110000x0 !
15
17
1%
#497144
b10000x0 !
09
0:
0$
#497186
b10010000x0 !
1?
1@
1"
#500000
b10010000x1 !
b11010000x1 !
b1010000x1 !
16
1;
0?
0@
07
0%
0"
#501085
b10000x1 !
0;
#501677
b110000x1 !
19
#503810
b10000x1 !
09
#504435
b1010000x1 !
1;
#504913
b11010000x1 !
1?
#505614
b11000000x1 !
05
#506085
b10000000x1 !
0;
#508343
b10100000x1 !
19
#509435
b11100000x1 !
1;
#509713
b1100000x1 !
0?
#510000
b1000000x1 !
09
#511401
b11000000x1 !
1?
#511787
b10000000x1 !
0;
#512152
b10100000x1 !
19
#515285
b10000000x1 !
09
#515787
b11000000x1 !
1;
#516201
b1000000x1 !
0?
#517014
b1010000x1 !
15
#518818
b1110000x1 !
19
#520000
b110000x1 !
b10110000x1 !
0;
1?
#520429
b10100000x1 !
05
#521837
b100000x1 !
0?
#521951
b0x1 !
09
#523229
b10000x1 !
15
#524587
b10010000x1 !
1?
#525386
b11010000x1 !
1;
#525429
b11000000x1 !
05
#525484
b11100000x1 !
19
#526837
b1100000x1 !
0?
#528229
b1110000x1 !
15
#528617
b1010000x1 !
09
#529587
b11010000x1 !
1?
#530000
b11000000x1 !
b11100000x1 !
b1100000x1 !
05
19
0?
#530391
b1000000x1 !
09
#531627
b11000000x1 !
1?
#533491
b11100000x1 !
19
#533877
b1100000x1 !
0?
#534186
b100000x1 !
0;
#534486
b110000x1 !
15
#535391
b10000x1 !
09
#536627
b10010000x1 !
1?
#538491
b10110000x1 !
19
#538877
b110000x1 !
0?
#539086
b100000x1 !
05
#540000
b1100000x1 !
b1000000x1 !
b11000000x1 !
09
1;
1?
#540073
b11100000x1 !
19
#540384
b10100000x1 !
0;
#540817
b100000x1 !
0?
#541973
b0x1 !
09
#544486
b10000x1 !
15
#545073
b110000x1 !
19
#546517
b10110000x1 !
1?
#546684
b11110000x1 !
1;
#546973
b11010000x1 !
09
#549086
b11000000x1 !
05
#550000
b1000000x1 !
0?
#551588
b0x1 !
0;
#552413
b10000x1 !
15
#554813
b0x1 !
05
#554888
b1000000x1 !
1;
#555246
b11000000x1 !
1?
#556588
b10000000x1 !
0;
#557413
b10010000x1 !
15
#558062
b10110000x1 !
19
#559646
b110000x1 !
0?
#559813
b100000x1 !
05
#559888
b1100000x1 !
1;
#560000
b100000x1 !
0;
#561564
b1100000x1 !
1;
#562154
b1110000x1 !
15
#563630
b110000x1 !
0;
#564420
b100000x1 !
05
#565246
b10100000x1 !
1?
#567662
b10000000x1 !
09
#568230
b11000000x1 !
1;
#568820
b11010000x1 !
15
#569646
b1010000x1 !
0?
#570296
b10000x1 !
0;
#570444
b110000x1 !
19
#570865
b10110000x1 !
1?
#571086
b10100000x1 !
05
#571643
b10000000x1 !
09
#573015
b0x1 !
0?
#573777
b100000x1 !
19
#574896
b1100000x1 !
1;
#574976
b1000000x1 !
09
#575486
b1010000x1 !
15
#575865
b11010000x1 !
1?
#576962
b10010000x1 !
0;
#577110
b10110000x1 !
19
#577752
b10100000x1 !
05
#578015
b100000x1 !
0?
#578309
b0x1 !
09
#580552
b10000000x1 !
1?
#580805
b10010000x1 !
15
#582102
b10000x1 !
0?
#584495
b1010000x1 !
1;
#585552
b11010000x1 !
1?
#586205
b11000000x1 !
05
#586339
b11100000x1 !
19
#587102
b1100000x1 !
0?
#588195
b100000x1 !
0;
#590000
b10100000x1 !
1?
#592339
b10000000x1 !
09
#593019
b0x1 !
0?
#593950
b10000x1 !
15
#594495
b1010000x1 !
1;
#598150
b1000000x1 !
05
#598195
b0x1 !
0;
#600000
b0x0 !
06
#601618
b1000000x0 !
1;
1=
1#
#602147
b1100000x0 !
19
1:
1$
#603618
b100000x0 !
0;
0=
0#
#603747
b0x0 !
09
0:
0$
#603950
b10000x0 !
15
17
1%
#606019
b10010000x0 !
1?
1@
1"
#606618
b11010000x0 !
1;
1=
1#
#607147
b11110000x0 !
19
1:
1$
#608150
b11100000x0 !
05
07
0%
#608618
b10100000x0 !
0;
0=
0#
#608747
b10000000x0 !
09
0:
0$
#610000
b0x0 !
b10000x0 !
b110000x0 !
15
19
0?
0@
1:
17
1%
1$
0"
#610069
b10110000x0 !
1?
1@
1"
#612234
b11110000x0 !
1;
1=
1#
#613407
b11010000x0 !
09
0:
0$
#614068
b1010000x0 !
0?
0@
0"
#615955
b1000000x0 !
05
07
0%
#616735
b11000000x0 !
1?
1@
1"
#617634
b10000000x0 !
0;
0=
0#
#620000
b11000000x0 !
1;
1=
1#
#620734
b1000000x0 !
0?
0@
0"
#623401
b11000000x0 !
1?
1@
1"
#623607
b11100000x0 !
19
1:
1$
#625044
b10100000x0 !
0;
0=
0#
#625355
b10110000x0 !
15
17
1%
#627400
b110000x0 !
0?
0@
0"
#630000
b10000x0 !
b0x0 !
05
09
0:
07
0%
0$
#632083
b100000x0 !
19
1:
1$
#632384
b110000x0 !
15
17
1%
#633249
b10000x0 !
09
0:
0$
#633782
b10010000x0 !
1?
1@
1"
#634644
b11010000x0 !
1;
1=
1#
#635416
b11110000x0 !
19
1:
1$
#635450
b11100000x0 !
05
07
0%
#636582
b11000000x0 !
09
0:
0$
#636782
b1000000x0 !
0?
0@
0"
#638749
b1100000x0 !
19
1:
1$
#639050
b1110000x0 !
15
17
1%
#639915
b1010000x0 !
09
0:
0$
#640000
b10000x0 !
b10010000x0 !
b10110000x0 !
19
0;
1?
1@
0=
1:
1$
0#
1"
#640333
b11110000x0 !
1;
1=
1#
#640609
b11010000x0 !
09
0:
0$
#640995
b1010000x0 !
0?
0@
0"
#641983
b10000x0 !
0;
0=
0#
#642116
b0x0 !
05
07
0%
#643859
b100000x0 !
19
1:
1$
#644328
b10100000x0 !
1?
1@
1"
#645333
b11100000x0 !
1;
1=
1#
#645609
b11000000x0 !
09
0:
0$
#645716
b11010000x0 !
15
17
1%
#646983
b10010000x0 !
0;
0=
0#
#647661
b10000x0 !
0?
0@
0"
#648782
b0x0 !
05
07
0%
#648859
b100000x0 !
19
1:
1$
#650000
b1100000x0 !
1;
1=
1#
#650973
b1110000x0 !
15
17
1%
#650994
b11110000x0 !
1?
1@
1"
#651207
b11010000x0 !
09
0:
0$
#652923
b11000000x0 !
05
07
0%
#654327
b1000000x0 !
0?
0@
0"
#655973
b1010000x0 !
15
17
1%
#657407
b1110000x0 !
19
1:
1$
#657536
b110000x0 !
0;
0=
0#
#657660
b10110000x0 !
1?
1@
1"
#657923
b10100000x0 !
05
07
0%
#660000
b100000x0 !
0?
0@
0"
#660554
b10100000x0 !
1?
1@
1"
#661043
b10110000x0 !
15
17
1%
#662604
b110000x0 !
0?
0@
0"
#662621
b10000x0 !
09
0:
0$
#664543
b0x0 !
05
07
0%
#665554
b10000000x0 !
1?
1@
1"
#667604
b0x0 !
0?
0@
0"
#667736
b1000000x0 !
1;
1=
1#
#670000
b0x0 !
0;
0=
0#
#671043
b10000x0 !
15
17
1%
#672047
b10010000x0 !
1?
1@
1"
#672475
b11010000x0 !
1;
1=
1#
#672821
b11110000x0 !
19
1:
1$
#674525
b10110000x0 !
0;
0=
0#
#674543
b10100000x0 !
05
07
0%
#674646
b100000x0 !
0?
0@
0"
#677475
b1100000x0 !
1;
1=
1#
#678713
b11100000x0 !
1?
1@
1"
#679525
b10100000x0 !
0;
0=
0#
#680000
b10110000x0 !
15
17
1%
#680480
b10010000x0 !
09
0:
0$
#680547
b10000000x0 !
05
07
0%
#681312
b0x0 !
0?
0@
0"
#681793
b1000000x0 !
1;
1=
1#
#683397
b1010000x0 !
15
17
1%
#685379
b11010000x0 !
1?
1@
1"
#685493
b10010000x0 !
0;
0=
0#
#685547
b10000000x0 !
05
07
0%
#686980
b10100000x0 !
19
1:
1$
#687978
b100000x0 !
0?
0@
0"
#688397
b110000x0 !
15
17
1%
#690000
b100000x0 !
05
07
0%
#690088
b10100000x0 !
1?
1@
1"
#690427
b11100000x0 !
1;
1=
1#
#690480
b11000000x0 !
09
0:
0$
#691838
b1000000x0 !
0?
0@
0"
#692793
b1010000x0 !
15
17
1%
#693827
b10000x0 !
0;
0=
0#
#694293
b0x0 !
05
07
0%
#695088
b10000000x0 !
1?
1@
1"
#696838
b0x0 !
0?
0@
0"
#696980
b100000x0 !
19
1:
1$
#697793
b110000x0 !
15
17
1%
#699293
b100000x0 !
05
07
0%
#700000
b100000x1 !
b0x1 !
16
09
0:
0$
#700427
b1000000x1 !
1;
#701438
b1010000x1 !
15
#701825
b11010000x1 !
1?
#702406
b11110000x1 !
19
#703638
b11100000x1 !
05
#703827
b10100000x1 !
0;
#704856
b10000000x1 !
09
#705824
b0x1 !
0?
#706438
b10000x1 !
15
#707406
b110000x1 !
19
#708491
b10110000x1 !
1?
#708638
b10100000x1 !
05
#709856
b10000000x1 !
09
#711014
b10100000x1 !
19
