Lab6/Part3_1/simulation/qsim/part3_1.msim.vcd
$comment
	File created using the following command:
		vcd file part3_1.msim.vcd -direction
$end
$date
	Tue Nov 01 09:44:45 2016
$end
$version
	ModelSim Version 10.4d
$end
$timescale
	1ps
$end

$scope module part3_1_vlg_vec_tst $end
$var reg 1 ! CLOCK_50 $end
$var reg 2 " KEY [1:0] $end
$var reg 3 # SW [2:0] $end
$var wire 1 $ LEDG [2] $end
$var wire 1 % LEDG [1] $end
$var wire 1 & LEDG [0] $end
$var wire 1 ' LEDR [0] $end

$scope module i1 $end
$var wire 1 ( gnd $end
$var wire 1 ) vcc $end
$var wire 1 * unknown $end
$var tri1 1 + devclrn $end
$var tri1 1 , devpor $end
$var tri1 1 - devoe $end
$var wire 1 . ~QUARTUS_CREATED_GND~I_combout $end
$var wire 1 / CLOCK_50~input_o $end
$var wire 1 0 CLOCK_50~inputCLKENA0_outclk $end
$var wire 1 1 KEY[0]~input_o $end
$var wire 1 2 KEY[1]~input_o $end
$var wire 1 3 SW[1]~input_o $end
$var wire 1 4 SW[0]~input_o $end
$var wire 1 5 SW[2]~input_o $end
$var wire 1 6 Add0~101_sumout $end
$var wire 1 7 LessThan0~0_combout $end
$var wire 1 8 LessThan0~1_combout $end
$var wire 1 9 LessThan0~3_combout $end
$var wire 1 : LessThan0~2_combout $end
$var wire 1 ; LessThan0~4_combout $end
$var wire 1 < LessThan0~5_combout $end
$var wire 1 = Add0~102 $end
$var wire 1 > Add0~97_sumout $end
$var wire 1 ? Add0~98 $end
$var wire 1 @ Add0~93_sumout $end
$var wire 1 A Add0~94 $end
$var wire 1 B Add0~89_sumout $end
$var wire 1 C Add0~90 $end
$var wire 1 D Add0~85_sumout $end
$var wire 1 E Add0~86 $end
$var wire 1 F Add0~81_sumout $end
$var wire 1 G Add0~82 $end
$var wire 1 H Add0~57_sumout $end
$var wire 1 I count[6]~DUPLICATE_q $end
$var wire 1 J Add0~58 $end
$var wire 1 K Add0~61_sumout $end
$var wire 1 L count[7]~DUPLICATE_q $end
$var wire 1 M Add0~62 $end
$var wire 1 N Add0~53_sumout $end
$var wire 1 O Add0~54 $end
$var wire 1 P Add0~49_sumout $end
$var wire 1 Q Add0~50 $end
$var wire 1 R Add0~45_sumout $end
$var wire 1 S Add0~46 $end
$var wire 1 T Add0~77_sumout $end
$var wire 1 U Add0~78 $end
$var wire 1 V Add0~69_sumout $end
$var wire 1 W count[12]~DUPLICATE_q $end
$var wire 1 X Add0~70 $end
$var wire 1 Y Add0~73_sumout $end
$var wire 1 Z Add0~74 $end
$var wire 1 [ Add0~65_sumout $end
$var wire 1 \ Add0~66 $end
$var wire 1 ] Add0~41_sumout $end
$var wire 1 ^ Add0~42 $end
$var wire 1 _ Add0~13_sumout $end
$var wire 1 ` Add0~14 $end
$var wire 1 a Add0~17_sumout $end
$var wire 1 b Add0~18 $end
$var wire 1 c Add0~9_sumout $end
$var wire 1 d Add0~10 $end
$var wire 1 e Add0~33_sumout $end
$var wire 1 f count[19]~DUPLICATE_q $end
$var wire 1 g Add0~34 $end
$var wire 1 h Add0~29_sumout $end
$var wire 1 i Add0~30 $end
$var wire 1 j Add0~25_sumout $end
$var wire 1 k Add0~26 $end
$var wire 1 l Add0~21_sumout $end
$var wire 1 m count[22]~DUPLICATE_q $end
$var wire 1 n Add0~22 $end
$var wire 1 o Add0~5_sumout $end
$var wire 1 p count[23]~DUPLICATE_q $end
$var wire 1 q Add0~6 $end
$var wire 1 r Add0~37_sumout $end
$var wire 1 s count[24]~DUPLICATE_q $end
$var wire 1 t Add0~38 $end
$var wire 1 u Add0~1_sumout $end
$var wire 1 v Q~5_combout $end
$var wire 1 w Selector2~0_combout $end
$var wire 1 x y_Q.E~q $end
$var wire 1 y counter~5_combout $end
$var wire 1 z Selector0~2_combout $end
$var wire 1 { counter[2]~1_combout $end
$var wire 1 | Selector0~0_combout $end
$var wire 1 } Q~6_combout $end
$var wire 1 ~ Q~3_combout $end
$var wire 1 !! Q~4_combout $end
$var wire 1 "! Q[3]~0_combout $end
$var wire 1 #! Q[3]~1_combout $end
$var wire 1 $! counter[2]~0_combout $end
$var wire 1 %! Q[3]~2_combout $end
$var wire 1 &! counter~3_combout $end
$var wire 1 '! counter~4_combout $end
$var wire 1 (! counter~2_combout $end
$var wire 1 )! Selector1~0_combout $end
$var wire 1 *! y_Q.B~q $end
$var wire 1 +! Y_D.C~0_combout $end
$var wire 1 ,! y_Q.C~q $end
$var wire 1 -! Y_D.D~0_combout $end
$var wire 1 .! y_Q.D~q $end
$var wire 1 /! Selector0~1_combout $end
$var wire 1 0! y_Q.A~q $end
$var wire 1 1! WideNor0~0_combout $end
$var wire 1 2! count [25] $end
$var wire 1 3! count [24] $end
$var wire 1 4! count [23] $end
$var wire 1 5! count [22] $end
$var wire 1 6! count [21] $end
$var wire 1 7! count [20] $end
$var wire 1 8! count [19] $end
$var wire 1 9! count [18] $end
$var wire 1 :! count [17] $end
$var wire 1 ;! count [16] $end
$var wire 1 <! count [15] $end
$var wire 1 =! count [14] $end
$var wire 1 >! count [13] $end
$var wire 1 ?! count [12] $end
$var wire 1 @! count [11] $end
$var wire 1 A! count [10] $end
$var wire 1 B! count [9] $end
$var wire 1 C! count [8] $end
$var wire 1 D! count [7] $end
$var wire 1 E! count [6] $end
$var wire 1 F! count [5] $end
$var wire 1 G! count [4] $end
$var wire 1 H! count [3] $end
$var wire 1 I! count [2] $end
$var wire 1 J! count [1] $end
$var wire 1 K! count [0] $end
$var wire 1 L! Q [3] $end
$var wire 1 M! Q [2] $end
$var wire 1 N! Q [1] $end
$var wire 1 O! Q [0] $end
$var wire 1 P! counter [2] $end
$var wire 1 Q! counter [1] $end
$var wire 1 R! counter [0] $end
$upscope $end
$upscope $end
$enddefinitions $end
#0
$dumpvars
0!
b0 "
b0 #
0&
0%
0$
0'
0(
1)
x*
1+
1,
1-
0.
0/
00
01
02
03
04
05
16
07
18
09
1:
0;
0<
0=
0>
0?
0@
0A
0B
0C
0D
0E
0F
0G
0H
0I
0J
0K
0L
0M
0N
0O
0P
0Q
0R
0S
0T
0U
0V
0W
0X
0Y
0Z
0[
0\
0]
0^
0_
0`
0a
0b
0c
0d
0e
0f
0g
0h
0i
0j
0k
0l
0m
0n
0o
0p
0q
0r
0s
0t
0u
0v
0w
0x
0y
0z
0{
0|
0}
1~
1!!
0"!
0#!
0$!
0%!
0&!
0'!
1(!
0)!
0*!
0+!
0,!
0-!
0.!
0/!
00!
11!
0K!
0J!
0I!
0H!
0G!
0F!
0E!
0D!
0C!
0B!
0A!
0@!
0?!
0>!
0=!
0<!
0;!
0:!
09!
08!
07!
06!
05!
04!
03!
02!
zO!
0N!
0M!
0L!
0R!
0Q!
0P!
$end
#25000
1!
1/
10
1K!
1=
06
1>
#50000
b10 "
0!
12
0/
00
1/!
1)!
1z
1$!
#75000
1!
1/
10
1J!
0K!
0=
16
1?
0>
0?
1>
1@
0@
#100000
b11 "
b1 "
0!
11
02
0/
00
0/!
0)!
0z
0$!
#125000
1!
1/
10
1K!
1=
06
1?
0>
1@
#150000
b11 "
0!
12
0/
00
1/!
1)!
1z
1$!
#175000
1!
1/
10
1I!
0J!
0K!
0=
16
0?
1>
1A
0@
0>
0A
1@
1B
0B
#200000
b100 #
b10 "
b0 "
0!
01
02
15
0/
00
1&!
0~
0/!
0)!
0z
0(!
0$!
1'!
0!!
#225000
1!
1/
10
1K!
1=
06
1>
#250000
b10 "
0!
12
0/
00
1/!
1)!
1z
1$!
#275000
1!
1/
10
1J!
0K!
0=
16
1?
0>
0?
1>
1A
0@
0A
1@
1B
0B
#300000
b11 "
b1 "
0!
11
02
0/
00
0/!
0)!
0z
0$!
#325000
1!
1/
10
1K!
1=
06
1?
0>
1A
0@
1B
#350000
b11 "
0!
12
0/
00
1/!
1)!
1z
1$!
#375000
1!
1/
10
1H!
0I!
0J!
0K!
0=
16
0?
1>
0A
1@
1C
0B
0>
0@
0C
1B
1D
0D
#400000
b110 #
b10 #
b10 "
b0 "
0!
01
02
13
05
0/
00
0&!
1"!
1y
1v
0/!
0)!
0z
0$!
1#!
0'!
1}
#425000
1!
1/
10
1K!
1=
06
1>
#450000
b10 "
0!
12
0/
00
1/!
1)!
1z
1$!
0}
#475000
1!
1/
10
1J!
0K!
0=
16
1?
0>
0?
1>
1@
0@
#500000
b11 "
b1 "
0!
11
02
0/
00
0/!
0)!
0z
0$!
1}
#525000
1!
1/
10
1K!
1=
06
1?
0>
1@
#550000
b11 "
0!
12
0/
00
1/!
1)!
1z
1$!
0}
#575000
1!
1/
10
1I!
0J!
0K!
0=
16
0?
1>
1A
0@
0>
0A
1@
1C
0B
0C
1B
1D
0D
#600000
b110 #
b10 "
b0 "
0!
01
02
15
0/
00
1&!
1~
0y
0v
0/!
0)!
0z
1(!
0$!
1'!
1!!
#625000
1!
1/
10
1K!
1=
06
1>
#650000
b10 "
0!
12
0/
00
1/!
1)!
1z
1$!
#675000
1!
1/
10
1J!
0K!
0=
16
1?
0>
0?
1>
1A
0@
0A
1@
1C
0B
0C
1B
1D
0D
#700000
b11 "
b1 "
0!
11
02
0/
00
0/!
0)!
0z
0$!
#725000
1!
1/
10
1K!
1=
06
1?
0>
1A
0@
1C
0B
1D
#750000
b11 "
0!
12
0/
00
1/!
1)!
1z
1$!
#775000
1!
1/
10
1G!
0H!
0I!
0J!
0K!
0=
16
0?
1>
0A
1@
0C
1B
1E
0D
0>
0@
0B
0E
1D
1F
0F
#800000
b111 #
b101 #
b1 #
b10 "
b0 "
0!
01
02
14
03
05
0/
00
0&!
0~
1y
0/!
0)!
0z
0(!
0$!
0'!
0!!
#825000
1!
1/
10
1K!
1=
06
1>
#850000
b10 "
0!
12
0/
00
1/!
1)!
1z
1$!
#875000
1!
1/
10
1J!
0K!
0=
16
1?
0>
0?
1>
1@
0@
#900000
b11 "
b1 "
0!
11
02
0/
00
0/!
0)!
0z
0$!
#925000
1!
1/
10
1K!
1=
06
1?
0>
1@
#950000
b11 "
0!
12
0/
00
1/!
1)!
1z
1$!
#975000
1!
1/
10
1I!
0J!
0K!
0=
16
0?
1>
1A
0@
0>
0A
1@
1B
0B
#1000000
b101 #
b10 "
b0 "
0!
01
02
15
0/
00
0"!
1v
0/!
0)!
0z
0$!
0#!
1}
#1025000
1!
1/
10
1K!
1=
06
1>
#1050000
b10 "
0!
12
0/
00
1/!
1)!
1z
1$!
0}
#1075000
1!
1/
10
1J!
0K!
0=
16
1?
0>
0?
1>
1A
0@
0A
1@
1B
0B
#1100000
b11 "
b1 "
0!
11
02
0/
00
0/!
0)!
0z
0$!
1}
#1125000
1!
1/
10
1K!
1=
06
1?
0>
1A
0@
1B
#1150000
b11 "
0!
12
0/
00
1/!
1)!
1z
1$!
0}
#1175000
1!
1/
10
1H!
0I!
0J!
0K!
0=
16
0?
1>
0A
1@
1C
0B
0>
0@
0C
1B
1E
0D
0E
1D
1F
0F
#1200000
b111 #
b11 #
b10 "
b0 "
0!
01
02
13
05
0/
00
1&!
1"!
0y
0v
0/!
0)!
0z
1(!
0$!
1#!
1'!
#1225000
1!
1/
10
1K!
1=
06
1>
#1250000
b10 "
0!
12
0/
00
1/!
1)!
1z
1$!
#1275000
1!
1/
10
1J!
0K!
0=
16
1?
0>
0?
1>
1@
0@
#1300000
b11 "
b1 "
0!
11
02
0/
00
0/!
0)!
0z
0$!
#1325000
1!
1/
10
1K!
1=
06
1?
0>
1@
#1350000
b11 "
0!
12
0/
00
1/!
1)!
1z
1$!
#1375000
1!
1/
10
1I!
0J!
0K!
0=
16
0?
1>
1A
0@
0>
0A
1@
1C
0B
0C
1B
1E
0D
0E
1D
1F
0F
#1400000
b111 #
b10 "
b0 "
0!
01
02
15
0/
00
0&!
0"!
1y
0/!
0)!
0z
0(!
0$!
0#!
0'!
#1425000
1!
1/
10
1K!
1=
06
1>
#1450000
b10 "
0!
12
0/
00
1/!
1)!
1z
1$!
#1475000
1!
1/
10
1J!
0K!
0=
16
1?
0>
0?
1>
1A
0@
0A
1@
1C
0B
0C
1B
1E
0D
0E
1D
1F
0F
#1500000
b11 "
b1 "
0!
11
02
0/
00
0/!
0)!
0z
0$!
#1525000
1!
1/
10
1K!
1=
06
1?
0>
1A
0@
1C
0B
1E
0D
1F
#1550000
b11 "
0!
12
0/
00
1/!
1)!
1z
1$!
#1575000
1!
1/
10
1F!
0G!
0H!
0I!
0J!
0K!
0=
16
0?
1>
0A
1@
0C
1B
0E
1D
1G
0F
0>
0@
0B
0D
0G
1F
1H
0H
