Lab6/Part1/simulation/qsim/Part1.msim.vcd
$comment
	File created using the following command:
		vcd file Part1.msim.vcd -direction
$end
$date
	Mon Oct 31 21:52:37 2016
$end
$version
	ModelSim Version 10.4d
$end
$timescale
	1ps
$end

$scope module Part1_vlg_vec_tst $end
$var reg 1 ! KEY [0:0] $end
$var reg 10 " SW [9:0] $end
$var wire 1 # LEDR [9] $end
$var wire 1 $ LEDR [8] $end
$var wire 1 % LEDR [7] $end
$var wire 1 & LEDR [6] $end
$var wire 1 ' LEDR [5] $end
$var wire 1 ( LEDR [4] $end
$var wire 1 ) LEDR [3] $end
$var wire 1 * LEDR [2] $end
$var wire 1 + LEDR [1] $end
$var wire 1 , LEDR [0] $end

$scope module i1 $end
$var wire 1 - gnd $end
$var wire 1 . vcc $end
$var wire 1 / unknown $end
$var tri1 1 0 devclrn $end
$var tri1 1 1 devpor $end
$var tri1 1 2 devoe $end
$var wire 1 3 SW[2]~input_o $end
$var wire 1 4 SW[3]~input_o $end
$var wire 1 5 SW[4]~input_o $end
$var wire 1 6 SW[5]~input_o $end
$var wire 1 7 SW[6]~input_o $end
$var wire 1 8 SW[7]~input_o $end
$var wire 1 9 SW[8]~input_o $end
$var wire 1 : SW[9]~input_o $end
$var wire 1 ; ~QUARTUS_CREATED_GND~I_combout $end
$var wire 1 < KEY[0]~input_o $end
$var wire 1 = KEY[0]~inputCLKENA0_outclk $end
$var wire 1 > SW[0]~input_o $end
$var wire 1 ? y[0]~0_combout $end
$var wire 1 @ SW[1]~input_o $end
$var wire 1 A Y[1]~2_combout $end
$var wire 1 B Y[5]~3_combout $end
$var wire 1 C Y[4]~0_combout $end
$var wire 1 D Y[8]~1_combout $end
$var wire 1 E z~0_combout $end
$var wire 1 F y [8] $end
$var wire 1 G y [7] $end
$var wire 1 H y [6] $end
$var wire 1 I y [5] $end
$var wire 1 J y [4] $end
$var wire 1 K y [3] $end
$var wire 1 L y [2] $end
$var wire 1 M y [1] $end
$var wire 1 N y [0] $end
$var wire 1 O Y [8] $end
$var wire 1 P Y [7] $end
$var wire 1 Q Y [6] $end
$var wire 1 R Y [5] $end
$var wire 1 S Y [4] $end
$var wire 1 T Y [3] $end
$var wire 1 U Y [2] $end
$var wire 1 V Y [1] $end
$var wire 1 W Y [0] $end
$upscope $end
$upscope $end
$enddefinitions $end
#0
$dumpvars
b0 !
b0 "
0,
0+
0*
0)
0(
0'
0&
0%
0$
0#
0-
1.
x/
10
11
12
03
04
05
06
07
08
09
0:
0;
0<
0=
0>
1?
0@
0A
0B
0C
0D
0E
0N
0M
0L
0K
0J
0I
0H
0G
0F
zW
0V
0U
0T
zS
0R
0Q
0P
zO
$end
#12500
b1 !
1<
1=
1N
1,
#25000
b1000000000 "
b0 !
1:
0<
0=
#37500
b1 !
1<
1=
#50000
b1100000000 "
b100000000 "
b0 !
19
0:
0<
0=
#62500
b1 !
1<
1=
#75000
b1100000000 "
b0 !
1:
0<
0=
#87500
b1 !
1<
1=
#100000
b1110000000 "
b1010000000 "
b10000000 "
b0 !
18
09
0:
0<
0=
#112500
b1 !
1<
1=
#125000
b1010000000 "
b0 !
1:
0<
0=
#137500
b1 !
1<
1=
#150000
b1110000000 "
b110000000 "
b0 !
19
0:
0<
0=
#162500
b1 !
1<
1=
#175000
b1110000000 "
b0 !
1:
0<
0=
#187500
b1 !
1<
1=
#200000
b1111000000 "
b1101000000 "
b1001000000 "
b1000000 "
b0 !
17
08
09
0:
0<
0=
#212500
b1 !
1<
1=
#225000
b1001000000 "
b0 !
1:
0<
0=
#237500
b1 !
1<
1=
#250000
b1101000000 "
b101000000 "
b0 !
19
0:
0<
0=
#262500
b1 !
1<
1=
#275000
b1101000000 "
b0 !
1:
0<
0=
#287500
b1 !
1<
1=
#300000
b1111000000 "
b1011000000 "
b11000000 "
b0 !
18
09
0:
0<
0=
#312500
b1 !
1<
1=
#325000
b1011000000 "
b0 !
1:
0<
0=
#337500
b1 !
1<
1=
#350000
b1111000000 "
b111000000 "
b0 !
19
0:
0<
0=
#362500
b1 !
1<
1=
#375000
b1111000000 "
b0 !
1:
0<
0=
#387500
b1 !
1<
1=
#400000
b1111100000 "
b1110100000 "
b1100100000 "
b1000100000 "
b100000 "
b0 !
16
07
08
09
0:
0<
0=
#412500
b1 !
1<
1=
#425000
b1000100000 "
b0 !
1:
0<
0=
#437500
b1 !
1<
1=
#450000
b1100100000 "
b100100000 "
b0 !
19
0:
0<
0=
#462500
b1 !
1<
1=
#475000
b1100100000 "
b0 !
1:
0<
0=
#487500
b1 !
1<
1=
#500000
b1110100000 "
b1010100000 "
b10100000 "
b0 !
18
09
0:
0<
0=
#512500
b1 !
1<
1=
#525000
b1010100000 "
b0 !
1:
0<
0=
#537500
b1 !
1<
1=
#550000
b1110100000 "
b110100000 "
b0 !
19
0:
0<
0=
#562500
b1 !
1<
1=
#575000
b1110100000 "
b0 !
1:
0<
0=
#587500
b1 !
1<
1=
#600000
b1111100000 "
b1101100000 "
b1001100000 "
b1100000 "
b0 !
17
08
09
0:
0<
0=
#612500
b1 !
1<
1=
#625000
b1001100000 "
b0 !
1:
0<
0=
#637500
b1 !
1<
1=
#650000
b1101100000 "
b101100000 "
b0 !
19
0:
0<
0=
#662500
b1 !
1<
1=
#675000
b1101100000 "
b0 !
1:
0<
0=
#687500
b1 !
1<
1=
#700000
b1111100000 "
b1011100000 "
b11100000 "
b0 !
18
09
0:
0<
0=
#712500
b1 !
1<
1=
#725000
b1011100000 "
b0 !
1:
0<
0=
#737500
b1 !
1<
1=
#750000
b1111100000 "
b111100000 "
b0 !
19
0:
0<
0=
#762500
b1 !
1<
1=
#775000
b1111100000 "
b0 !
1:
0<
0=
#787500
b1 !
1<
1=
#800000
b1111110000 "
b1111010000 "
b1110010000 "
b1100010000 "
b1000010000 "
b10000 "
b0 !
15
06
07
08
09
0:
0<
0=
#812500
b1 !
1<
1=
#825000
b1000010000 "
b0 !
1:
0<
0=
#837500
b1 !
1<
1=
#850000
b1100010000 "
b100010000 "
b0 !
19
0:
0<
0=
#862500
b1 !
1<
1=
#875000
b1100010000 "
b0 !
1:
0<
0=
#887500
b1 !
1<
1=
#900000
b1110010000 "
b1010010000 "
b10010000 "
b0 !
18
09
0:
0<
0=
#912500
b1 !
1<
1=
#925000
b1010010000 "
b0 !
1:
0<
0=
#937500
b1 !
1<
1=
#950000
b1110010000 "
b110010000 "
b0 !
19
0:
0<
0=
#962500
b1 !
1<
1=
#975000
b1110010000 "
b0 !
1:
0<
0=
#987500
b1 !
1<
1=
#1000000
b1111010000 "
b1101010000 "
b1001010000 "
b1010000 "
b0 !
17
08
09
0:
0<
0=
#1012500
b1 !
1<
1=
#1025000
b1001010000 "
b0 !
1:
0<
0=
#1037500
b1 !
1<
1=
#1050000
b1101010000 "
b101010000 "
b0 !
19
0:
0<
0=
#1062500
b1 !
1<
1=
#1075000
b1101010000 "
b0 !
1:
0<
0=
#1087500
b1 !
1<
1=
#1100000
b1111010000 "
b1011010000 "
b11010000 "
b0 !
18
09
0:
0<
0=
#1112500
b1 !
1<
1=
#1125000
b1011010000 "
b0 !
1:
0<
0=
#1137500
b1 !
1<
1=
#1150000
b1111010000 "
b111010000 "
b0 !
19
0:
0<
0=
#1162500
b1 !
1<
1=
#1175000
b1111010000 "
b0 !
1:
0<
0=
#1187500
b1 !
1<
1=
#1200000
b1111110000 "
b1110110000 "
b1100110000 "
b1000110000 "
b110000 "
b0 !
16
07
08
09
0:
0<
0=
#1212500
b1 !
1<
1=
#1225000
b1000110000 "
b0 !
1:
0<
0=
#1237500
b1 !
1<
1=
#1250000
b1100110000 "
b100110000 "
b0 !
19
0:
0<
0=
#1262500
b1 !
1<
1=
#1275000
b1100110000 "
b0 !
1:
0<
0=
#1287500
b1 !
1<
1=
#1300000
b1110110000 "
b1010110000 "
b10110000 "
b0 !
18
09
0:
0<
0=
#1312500
b1 !
1<
1=
#1325000
b1010110000 "
b0 !
1:
0<
0=
#1337500
b1 !
1<
1=
#1350000
b1110110000 "
b110110000 "
b0 !
19
0:
0<
0=
#1362500
b1 !
1<
1=
#1375000
b1110110000 "
b0 !
1:
0<
0=
#1387500
b1 !
1<
1=
#1400000
b1111110000 "
b1101110000 "
b1001110000 "
b1110000 "
b0 !
17
08
09
0:
0<
0=
#1412500
b1 !
1<
1=
#1425000
b1001110000 "
b0 !
1:
0<
0=
#1437500
b1 !
1<
1=
#1450000
b1101110000 "
b101110000 "
b0 !
19
0:
0<
0=
#1462500
b1 !
1<
1=
#1475000
b1101110000 "
b0 !
1:
0<
0=
#1487500
b1 !
1<
1=
#1500000
b1111110000 "
b1011110000 "
b11110000 "
b0 !
18
09
0:
0<
0=
#1512500
b1 !
1<
1=
#1525000
b1011110000 "
b0 !
1:
0<
0=
#1537500
b1 !
1<
1=
#1550000
b1111110000 "
b111110000 "
b0 !
19
0:
0<
0=
#1562500
b1 !
1<
1=
#1575000
b1111110000 "
b0 !
1:
0<
0=
#1587500
b1 !
1<
1=
#1600000
b1111111000 "
b1111101000 "
b1111001000 "
b1110001000 "
b1100001000 "
b1000001000 "
b1000 "
b0 !
14
05
06
07
08
09
0:
0<
0=
#1612500
b1 !
1<
1=
#1625000
b1000001000 "
b0 !
1:
0<
0=
#1637500
b1 !
1<
1=
#1650000
b1100001000 "
b100001000 "
b0 !
19
0:
0<
0=
#1662500
b1 !
1<
1=
#1675000
b1100001000 "
b0 !
1:
0<
0=
#1687500
b1 !
1<
1=
#1700000
b1110001000 "
b1010001000 "
b10001000 "
b0 !
18
09
0:
0<
0=
#1712500
b1 !
1<
1=
#1725000
b1010001000 "
b0 !
1:
0<
0=
#1737500
b1 !
1<
1=
#1750000
b1110001000 "
b110001000 "
b0 !
19
0:
0<
0=
#1762500
b1 !
1<
1=
#1775000
b1110001000 "
b0 !
1:
0<
0=
#1787500
b1 !
1<
1=
#1800000
b1111001000 "
b1101001000 "
b1001001000 "
b1001000 "
b0 !
17
08
09
0:
0<
0=
#1812500
b1 !
1<
1=
#1825000
b1001001000 "
b0 !
1:
0<
0=
#1837500
b1 !
1<
1=
#1850000
b1101001000 "
b101001000 "
b0 !
19
0:
0<
0=
#1862500
b1 !
1<
1=
#1875000
b1101001000 "
b0 !
1:
0<
0=
#1887500
b1 !
1<
1=
#1900000
b1111001000 "
b1011001000 "
b11001000 "
b0 !
18
09
0:
0<
0=
#1912500
b1 !
1<
1=
#1925000
b1011001000 "
b0 !
1:
0<
0=
#1937500
b1 !
1<
1=
#1950000
b1111001000 "
b111001000 "
b0 !
19
0:
0<
0=
#1962500
b1 !
1<
1=
#1975000
b1111001000 "
b0 !
1:
0<
0=
#1987500
b1 !
1<
1=
#2000000
b1111101000 "
b1110101000 "
b1100101000 "
b1000101000 "
b101000 "
b0 !
16
07
08
09
0:
0<
0=
#2012500
b1 !
1<
1=
#2025000
b1000101000 "
b0 !
1:
0<
0=
#2037500
b1 !
1<
1=
#2050000
b1100101000 "
b100101000 "
b0 !
19
0:
0<
0=
#2062500
b1 !
1<
1=
#2075000
b1100101000 "
b0 !
1:
0<
0=
#2087500
b1 !
1<
1=
#2100000
b1110101000 "
b1010101000 "
b10101000 "
b0 !
18
09
0:
0<
0=
#2112500
b1 !
1<
1=
#2125000
b1010101000 "
b0 !
1:
0<
0=
#2137500
b1 !
1<
1=
#2150000
b1110101000 "
b110101000 "
b0 !
19
0:
0<
0=
#2162500
b1 !
1<
1=
#2175000
b1110101000 "
b0 !
1:
0<
0=
#2187500
b1 !
1<
1=
#2200000
b1111101000 "
b1101101000 "
b1001101000 "
b1101000 "
b0 !
17
08
09
0:
0<
0=
#2212500
b1 !
1<
1=
#2225000
b1001101000 "
b0 !
1:
0<
0=
#2237500
b1 !
1<
1=
#2250000
b1101101000 "
b101101000 "
b0 !
19
0:
0<
0=
#2262500
b1 !
1<
1=
#2275000
b1101101000 "
b0 !
1:
0<
0=
#2287500
b1 !
1<
1=
#2300000
b1111101000 "
b1011101000 "
b11101000 "
b0 !
18
09
0:
0<
0=
#2312500
b1 !
1<
1=
#2325000
b1011101000 "
b0 !
1:
0<
0=
#2337500
b1 !
1<
1=
#2350000
b1111101000 "
b111101000 "
b0 !
19
0:
0<
0=
#2362500
b1 !
1<
1=
#2375000
b1111101000 "
b0 !
1:
0<
0=
#2387500
b1 !
1<
1=
#2400000
b1111111000 "
b1111011000 "
b1110011000 "
b1100011000 "
b1000011000 "
b11000 "
b0 !
15
06
07
08
09
0:
0<
0=
#2412500
b1 !
1<
1=
#2425000
b1000011000 "
b0 !
1:
0<
0=
#2437500
b1 !
1<
1=
#2450000
b1100011000 "
b100011000 "
b0 !
19
0:
0<
0=
#2462500
b1 !
1<
1=
#2475000
b1100011000 "
b0 !
1:
0<
0=
#2487500
b1 !
1<
1=
#2500000
b1110011000 "
b1010011000 "
b10011000 "
b0 !
18
09
0:
0<
0=
#2512500
b1 !
1<
1=
#2525000
b1010011000 "
b0 !
1:
0<
0=
#2537500
b1 !
1<
1=
#2550000
b1110011000 "
b110011000 "
b0 !
19
0:
0<
0=
#2562500
b1 !
1<
1=
#2575000
b1110011000 "
b0 !
1:
0<
0=
#2587500
b1 !
1<
1=
#2600000
b1111011000 "
b1101011000 "
b1001011000 "
b1011000 "
b0 !
17
08
09
0:
0<
0=
#2612500
b1 !
1<
1=
#2625000
b1001011000 "
b0 !
1:
0<
0=
#2637500
b1 !
1<
1=
#2650000
b1101011000 "
b101011000 "
b0 !
19
0:
0<
0=
#2662500
b1 !
1<
1=
#2675000
b1101011000 "
b0 !
1:
0<
0=
#2687500
b1 !
1<
1=
#2700000
b1111011000 "
b1011011000 "
b11011000 "
b0 !
18
09
0:
0<
0=
#2712500
b1 !
1<
1=
#2725000
b1011011000 "
b0 !
1:
0<
0=
#2737500
b1 !
1<
1=
#2750000
b1111011000 "
b111011000 "
b0 !
19
0:
0<
0=
#2762500
b1 !
1<
1=
#2775000
b1111011000 "
b0 !
1:
0<
0=
#2787500
b1 !
1<
1=
#2800000
b1111111000 "
b1110111000 "
b1100111000 "
b1000111000 "
b111000 "
b0 !
16
07
08
09
0:
0<
0=
#2812500
b1 !
1<
1=
#2825000
b1000111000 "
b0 !
1:
0<
0=
#2837500
b1 !
1<
1=
#2850000
b1100111000 "
b100111000 "
b0 !
19
0:
0<
0=
#2862500
b1 !
1<
1=
#2875000
b1100111000 "
b0 !
1:
0<
0=
#2887500
b1 !
1<
1=
#2900000
b1110111000 "
b1010111000 "
b10111000 "
b0 !
18
09
0:
0<
0=
#2912500
b1 !
1<
1=
#2925000
b1010111000 "
b0 !
1:
0<
0=
#2937500
b1 !
1<
1=
#2950000
b1110111000 "
b110111000 "
b0 !
19
0:
0<
0=
#2962500
b1 !
1<
1=
#2975000
b1110111000 "
b0 !
1:
0<
0=
#2987500
b1 !
1<
1=
#3000000
b1111111000 "
b1101111000 "
b1001111000 "
b1111000 "
b0 !
17
08
09
0:
0<
0=
#3012500
b1 !
1<
1=
#3025000
b1001111000 "
b0 !
1:
0<
0=
#3037500
b1 !
1<
1=
#3050000
b1101111000 "
b101111000 "
b0 !
19
0:
0<
0=
#3062500
b1 !
1<
1=
#3075000
b1101111000 "
b0 !
1:
0<
0=
#3087500
b1 !
1<
1=
#3100000
b1111111000 "
b1011111000 "
b11111000 "
b0 !
18
09
0:
0<
0=
#3112500
b1 !
1<
1=
#3125000
b1011111000 "
b0 !
1:
0<
0=
#3137500
b1 !
1<
1=
#3150000
b1111111000 "
b111111000 "
b0 !
19
0:
0<
0=
#3162500
b1 !
1<
1=
#3175000
b1111111000 "
b0 !
1:
0<
0=
#3187500
b1 !
1<
1=
#3200000
b1111111100 "
b1111110100 "
b1111100100 "
b1111000100 "
b1110000100 "
b1100000100 "
b1000000100 "
b100 "
b0 !
13
04
05
06
07
08
09
0:
0<
0=
#3212500
b1 !
1<
1=
#3225000
b1000000100 "
b0 !
1:
0<
0=
#3237500
b1 !
1<
1=
#3250000
b1100000100 "
b100000100 "
b0 !
19
0:
0<
0=
#3262500
b1 !
1<
1=
#3275000
b1100000100 "
b0 !
1:
0<
0=
#3287500
b1 !
1<
1=
#3300000
b1110000100 "
b1010000100 "
b10000100 "
b0 !
18
09
0:
0<
0=
#3312500
b1 !
1<
1=
#3325000
b1010000100 "
b0 !
1:
0<
0=
#3337500
b1 !
1<
1=
#3350000
b1110000100 "
b110000100 "
b0 !
19
0:
0<
0=
#3362500
b1 !
1<
1=
#3375000
b1110000100 "
b0 !
1:
0<
0=
#3387500
b1 !
1<
1=
#3400000
b1111000100 "
b1101000100 "
b1001000100 "
b1000100 "
b0 !
17
08
09
0:
0<
0=
#3412500
b1 !
1<
1=
#3425000
b1001000100 "
b0 !
1:
0<
0=
#3437500
b1 !
1<
1=
#3450000
b1101000100 "
b101000100 "
b0 !
19
0:
0<
0=
#3462500
b1 !
1<
1=
#3475000
b1101000100 "
b0 !
1:
0<
0=
#3487500
b1 !
1<
1=
#3500000
b1111000100 "
b1011000100 "
b11000100 "
b0 !
18
09
0:
0<
0=
#3512500
b1 !
1<
1=
#3525000
b1011000100 "
b0 !
1:
0<
0=
#3537500
b1 !
1<
1=
#3550000
b1111000100 "
b111000100 "
b0 !
19
0:
0<
0=
#3562500
b1 !
1<
1=
#3575000
b1111000100 "
b0 !
1:
0<
0=
#3587500
b1 !
1<
1=
#3600000
b1111100100 "
b1110100100 "
b1100100100 "
b1000100100 "
b100100 "
b0 !
16
07
08
09
0:
0<
0=
#3612500
b1 !
1<
1=
#3625000
b1000100100 "
b0 !
1:
0<
0=
#3637500
b1 !
1<
1=
#3650000
b1100100100 "
b100100100 "
b0 !
19
0:
0<
0=
#3662500
b1 !
1<
1=
#3675000
b1100100100 "
b0 !
1:
0<
0=
#3687500
b1 !
1<
1=
#3700000
b1110100100 "
b1010100100 "
b10100100 "
b0 !
18
09
0:
0<
0=
#3712500
b1 !
1<
1=
#3725000
b1010100100 "
b0 !
1:
0<
0=
#3737500
b1 !
1<
1=
#3750000
b1110100100 "
b110100100 "
b0 !
19
0:
0<
0=
#3762500
b1 !
1<
1=
#3775000
b1110100100 "
b0 !
1:
0<
0=
#3787500
b1 !
1<
1=
#3800000
b1111100100 "
b1101100100 "
b1001100100 "
b1100100 "
b0 !
17
08
09
0:
0<
0=
#3812500
b1 !
1<
1=
#3825000
b1001100100 "
b0 !
1:
0<
0=
#3837500
b1 !
1<
1=
#3850000
b1101100100 "
b101100100 "
b0 !
19
0:
0<
0=
#3862500
b1 !
1<
1=
#3875000
b1101100100 "
b0 !
1:
0<
0=
#3887500
b1 !
1<
1=
#3900000
b1111100100 "
b1011100100 "
b11100100 "
b0 !
18
09
0:
0<
0=
#3912500
b1 !
1<
1=
#3925000
b1011100100 "
b0 !
1:
0<
0=
#3937500
b1 !
1<
1=
#3950000
b1111100100 "
b111100100 "
b0 !
19
0:
0<
0=
#3962500
b1 !
1<
1=
#3975000
b1111100100 "
b0 !
1:
0<
0=
#3987500
b1 !
1<
1=
#4000000
b1111110100 "
b1111010100 "
b1110010100 "
b1100010100 "
b1000010100 "
b10100 "
b0 !
15
06
07
08
09
0:
0<
0=
#4012500
b1 !
1<
1=
#4025000
b1000010100 "
b0 !
1:
0<
0=
#4037500
b1 !
1<
1=
#4050000
b1100010100 "
b100010100 "
b0 !
19
0:
0<
0=
#4062500
b1 !
1<
1=
#4075000
b1100010100 "
b0 !
1:
0<
0=
#4087500
b1 !
1<
1=
#4100000
b1110010100 "
b1010010100 "
b10010100 "
b0 !
18
09
0:
0<
0=
#4112500
b1 !
1<
1=
#4125000
b1010010100 "
b0 !
1:
0<
0=
#4137500
b1 !
1<
1=
#4150000
b1110010100 "
b110010100 "
b0 !
19
0:
0<
0=
#4162500
b1 !
1<
1=
#4175000
b1110010100 "
b0 !
1:
0<
0=
#4187500
b1 !
1<
1=
#4200000
b1111010100 "
b1101010100 "
b1001010100 "
b1010100 "
b0 !
17
08
09
0:
0<
0=
#4212500
b1 !
1<
1=
#4225000
b1001010100 "
b0 !
1:
0<
0=
#4237500
b1 !
1<
1=
#4250000
b1101010100 "
b101010100 "
b0 !
19
0:
0<
0=
#4262500
b1 !
1<
1=
#4275000
b1101010100 "
b0 !
1:
0<
0=
#4287500
b1 !
1<
1=
#4300000
b1111010100 "
b1011010100 "
b11010100 "
b0 !
18
09
0:
0<
0=
#4312500
b1 !
1<
1=
#4325000
b1011010100 "
b0 !
1:
0<
0=
#4337500
b1 !
1<
1=
#4350000
b1111010100 "
b111010100 "
b0 !
19
0:
0<
0=
#4362500
b1 !
1<
1=
#4375000
b1111010100 "
b0 !
1:
0<
0=
#4387500
b1 !
1<
1=
#4400000
b1111110100 "
b1110110100 "
b1100110100 "
b1000110100 "
b110100 "
b0 !
16
07
08
09
0:
0<
0=
#4412500
b1 !
1<
1=
#4425000
b1000110100 "
b0 !
1:
0<
0=
#4437500
b1 !
1<
1=
#4450000
b1100110100 "
b100110100 "
b0 !
19
0:
0<
0=
#4462500
b1 !
1<
1=
#4475000
b1100110100 "
b0 !
1:
0<
0=
#4487500
b1 !
1<
1=
#4500000
b1110110100 "
b1010110100 "
b10110100 "
b0 !
18
09
0:
0<
0=
#4512500
b1 !
1<
1=
#4525000
b1010110100 "
b0 !
1:
0<
0=
#4537500
b1 !
1<
1=
#4550000
b1110110100 "
b110110100 "
b0 !
19
0:
0<
0=
#4562500
b1 !
1<
1=
#4575000
b1110110100 "
b0 !
1:
0<
0=
#4587500
b1 !
1<
1=
#4600000
b1111110100 "
b1101110100 "
b1001110100 "
b1110100 "
b0 !
17
08
09
0:
0<
0=
#4612500
b1 !
1<
1=
#4625000
b1001110100 "
b0 !
1:
0<
0=
#4637500
b1 !
1<
1=
#4650000
b1101110100 "
b101110100 "
b0 !
19
0:
0<
0=
#4662500
b1 !
1<
1=
#4675000
b1101110100 "
b0 !
1:
0<
0=
#4687500
b1 !
1<
1=
#4700000
b1111110100 "
b1011110100 "
b11110100 "
b0 !
18
09
0:
0<
0=
#4712500
b1 !
1<
1=
#4725000
b1011110100 "
b0 !
1:
0<
0=
#4737500
b1 !
1<
1=
#4750000
b1111110100 "
b111110100 "
b0 !
19
0:
0<
0=
#4762500
b1 !
1<
1=
#4775000
b1111110100 "
b0 !
1:
0<
0=
#4787500
b1 !
1<
1=
#4800000
b1111111100 "
b1111101100 "
b1111001100 "
b1110001100 "
b1100001100 "
b1000001100 "
b1100 "
b0 !
14
05
06
07
08
09
0:
0<
0=
#4812500
b1 !
1<
1=
#4825000
b1000001100 "
b0 !
1:
0<
0=
#4837500
b1 !
1<
1=
#4850000
b1100001100 "
b100001100 "
b0 !
19
0:
0<
0=
#4862500
b1 !
1<
1=
#4875000
b1100001100 "
b0 !
1:
0<
0=
#4887500
b1 !
1<
1=
#4900000
b1110001100 "
b1010001100 "
b10001100 "
b0 !
18
09
0:
0<
0=
#4912500
b1 !
1<
1=
#4925000
b1010001100 "
b0 !
1:
0<
0=
#4937500
b1 !
1<
1=
#4950000
b1110001100 "
b110001100 "
b0 !
19
0:
0<
0=
#4962500
b1 !
1<
1=
#4975000
b1110001100 "
b0 !
1:
0<
0=
#4987500
b1 !
1<
1=
#5000000
b1111001100 "
b1101001100 "
b1001001100 "
b1001100 "
b0 !
17
08
09
0:
0<
0=
#5012500
b1 !
1<
1=
#5025000
b1001001100 "
b0 !
1:
0<
0=
#5037500
b1 !
1<
1=
#5050000
b1101001100 "
b101001100 "
b0 !
19
0:
0<
0=
#5062500
b1 !
1<
1=
#5075000
b1101001100 "
b0 !
1:
0<
0=
#5087500
b1 !
1<
1=
#5100000
b1111001100 "
b1011001100 "
b11001100 "
b0 !
18
09
0:
0<
0=
#5112500
b1 !
1<
1=
#5125000
b1011001100 "
b0 !
1:
0<
0=
#5137500
b1 !
1<
1=
#5150000
b1111001100 "
b111001100 "
b0 !
19
0:
0<
0=
#5162500
b1 !
1<
1=
#5175000
b1111001100 "
b0 !
1:
0<
0=
#5187500
b1 !
1<
1=
#5200000
b1111101100 "
b1110101100 "
b1100101100 "
b1000101100 "
b101100 "
b0 !
16
07
08
09
0:
0<
0=
#5212500
b1 !
1<
1=
#5225000
b1000101100 "
b0 !
1:
0<
0=
#5237500
b1 !
1<
1=
#5250000
b1100101100 "
b100101100 "
b0 !
19
0:
0<
0=
#5262500
b1 !
1<
1=
#5275000
b1100101100 "
b0 !
1:
0<
0=
#5287500
b1 !
1<
1=
#5300000
b1110101100 "
b1010101100 "
b10101100 "
b0 !
18
09
0:
0<
0=
#5312500
b1 !
1<
1=
#5325000
b1010101100 "
b0 !
1:
0<
0=
#5337500
b1 !
1<
1=
#5350000
b1110101100 "
b110101100 "
b0 !
19
0:
0<
0=
#5362500
b1 !
1<
1=
#5375000
b1110101100 "
b0 !
1:
0<
0=
#5387500
b1 !
1<
1=
#5400000
b1111101100 "
b1101101100 "
b1001101100 "
b1101100 "
b0 !
17
08
09
0:
0<
0=
#5412500
b1 !
1<
1=
#5425000
b1001101100 "
b0 !
1:
0<
0=
#5437500
b1 !
1<
1=
#5450000
b1101101100 "
b101101100 "
b0 !
19
0:
0<
0=
#5462500
b1 !
1<
1=
#5475000
b1101101100 "
b0 !
1:
0<
0=
#5487500
b1 !
1<
1=
#5500000
b1111101100 "
b1011101100 "
b11101100 "
b0 !
18
09
0:
0<
0=
#5512500
b1 !
1<
1=
#5525000
b1011101100 "
b0 !
1:
0<
0=
#5537500
b1 !
1<
1=
#5550000
b1111101100 "
b111101100 "
b0 !
19
0:
0<
0=
#5562500
b1 !
1<
1=
#5575000
b1111101100 "
b0 !
1:
0<
0=
#5587500
b1 !
1<
1=
#5600000
b1111111100 "
b1111011100 "
b1110011100 "
b1100011100 "
b1000011100 "
b11100 "
b0 !
15
06
07
08
09
0:
0<
0=
#5612500
b1 !
1<
1=
#5625000
b1000011100 "
b0 !
1:
0<
0=
#5637500
b1 !
1<
1=
#5650000
b1100011100 "
b100011100 "
b0 !
19
0:
0<
0=
#5662500
b1 !
1<
1=
#5675000
b1100011100 "
b0 !
1:
0<
0=
#5687500
b1 !
1<
1=
#5700000
b1110011100 "
b1010011100 "
b10011100 "
b0 !
18
09
0:
0<
0=
#5712500
b1 !
1<
1=
#5725000
b1010011100 "
b0 !
1:
0<
0=
#5737500
b1 !
1<
1=
#5750000
b1110011100 "
b110011100 "
b0 !
19
0:
0<
0=
#5762500
b1 !
1<
1=
#5775000
b1110011100 "
b0 !
1:
0<
0=
#5787500
b1 !
1<
1=
#5800000
b1111011100 "
b1101011100 "
b1001011100 "
b1011100 "
b0 !
17
08
09
0:
0<
0=
#5812500
b1 !
1<
1=
#5825000
b1001011100 "
b0 !
1:
0<
0=
#5837500
b1 !
1<
1=
#5850000
b1101011100 "
b101011100 "
b0 !
19
0:
0<
0=
#5862500
b1 !
1<
1=
#5875000
b1101011100 "
b0 !
1:
0<
0=
#5887500
b1 !
1<
1=
#5900000
b1111011100 "
b1011011100 "
b11011100 "
b0 !
18
09
0:
0<
0=
#5912500
b1 !
1<
1=
#5925000
b1011011100 "
b0 !
1:
0<
0=
#5937500
b1 !
1<
1=
#5950000
b1111011100 "
b111011100 "
b0 !
19
0:
0<
0=
#5962500
b1 !
1<
1=
#5975000
b1111011100 "
b0 !
1:
0<
0=
#5987500
b1 !
1<
1=
#6000000
b1111111100 "
b1110111100 "
b1100111100 "
b1000111100 "
b111100 "
b0 !
16
07
08
09
0:
0<
0=
#6012500
b1 !
1<
1=
#6025000
b1000111100 "
b0 !
1:
0<
0=
#6037500
b1 !
1<
1=
#6050000
b1100111100 "
b100111100 "
b0 !
19
0:
0<
0=
#6062500
b1 !
1<
1=
#6075000
b1100111100 "
b0 !
1:
0<
0=
#6087500
b1 !
1<
1=
#6100000
b1110111100 "
b1010111100 "
b10111100 "
b0 !
18
09
0:
0<
0=
#6112500
b1 !
1<
1=
#6125000
b1010111100 "
b0 !
1:
0<
0=
#6137500
b1 !
1<
1=
#6150000
b1110111100 "
b110111100 "
b0 !
19
0:
0<
0=
#6162500
b1 !
1<
1=
#6175000
b1110111100 "
b0 !
1:
0<
0=
#6187500
b1 !
1<
1=
#6200000
b1111111100 "
b1101111100 "
b1001111100 "
b1111100 "
b0 !
17
08
09
0:
0<
0=
#6212500
b1 !
1<
1=
#6225000
b1001111100 "
b0 !
1:
0<
0=
#6237500
b1 !
1<
1=
#6250000
b1101111100 "
b101111100 "
b0 !
19
0:
0<
0=
#6262500
b1 !
1<
1=
#6275000
b1101111100 "
b0 !
1:
0<
0=
#6287500
b1 !
1<
1=
#6300000
b1111111100 "
b1011111100 "
b11111100 "
b0 !
18
09
0:
0<
0=
#6312500
b1 !
1<
1=
#6325000
b1011111100 "
b0 !
1:
0<
0=
#6337500
b1 !
1<
1=
#6350000
b1111111100 "
b111111100 "
b0 !
19
0:
0<
0=
#6362500
b1 !
1<
1=
#6375000
b1111111100 "
b0 !
1:
0<
0=
#6387500
b1 !
1<
1=
#6400000
b1111111110 "
b1111111010 "
b1111110010 "
b1111100010 "
b1111000010 "
b1110000010 "
b1100000010 "
b1000000010 "
b10 "
b0 !
1@
03
04
05
06
07
08
09
0:
0<
0=
#6412500
b1 !
1<
1=
#6425000
b1000000010 "
b0 !
1:
0<
0=
#6437500
b1 !
1<
1=
#6450000
b1100000010 "
b100000010 "
b0 !
19
0:
0<
0=
#6462500
b1 !
1<
1=
#6475000
b1100000010 "
b0 !
1:
0<
0=
#6487500
b1 !
1<
1=
#6500000
b1110000010 "
b1010000010 "
b10000010 "
b0 !
18
09
0:
0<
0=
#6512500
b1 !
1<
1=
#6525000
b1010000010 "
b0 !
1:
0<
0=
#6537500
b1 !
1<
1=
#6550000
b1110000010 "
b110000010 "
b0 !
19
0:
0<
0=
